…
    filter, lag

The following objects are masked from ‘package:base’:

    intersect, setdiff, setequal, union

[1] 1.5e+00 1.5e+00 1.0e+00 1.0e+01 1.5e+05 1.0e+01
[1] 1.5
[1] 1.5
[1] 1
[1] 10
[1] 150000
[1] 10
# A tibble: 50 x 13
   timestep  node treatment acres capital stubbornness perc.Low perc.Medium
      <dbl> <dbl> <chr>     <dbl>   <dbl>        <dbl>    <dbl>       <dbl>
 1        0     1 low        2.25  12627.          0.8   12627.      11375.
 2        0     2 low        1.15   6445.          0.9    6445.       6338.
 3        0     3 high       2.55  14347.          0.3   13197.      14180.
 4        0     4 medium     4.87  27343.          0.7   26948.      27343.
 5        0     5 high       1.45   8158.          0.6    7930.       7741.
 6        0     6 high       4.86  27316.          0.3   27000.      25098.
 7        0     7 medium     5.11  28695.          1     26263.      28695.
 8        0     8 high      12.4   69799.          0.9   65622.      62242.
 9        0     9 high       9.35  52513.          0.7   45808.      46528.
10        0    10 medium     5.06  28411.          0.5   25952.      28411.
# … with 40 more rows, and 5 more variables: perc.High <dbl>,
#   disease.presence <dbl>, diseased.trees <dbl>, healthy.trees <dbl>,
#   monthly.costs <dbl>
…
