…
    filter, lag

The following objects are masked from ‘package:base’:

    intersect, setdiff, setequal, union

[1]  2.0  1.5  1.0 10.0  0.0 10.0
[1] 2
[1] 1.5
[1] 1
[1] 10
[1] 0
[1] 10
# A tibble: 1,132 x 13
   timestep  node treatment acres capital stubbornness perc.Low perc.Medium
      <dbl> <dbl> <chr>     <dbl>   <dbl>        <dbl>    <dbl>       <dbl>
 1        0     1 low        2.25  10539.          0.4   10539.      10058.
 2        0     2 low        1.15   5379.          0.6    5379.       4705.
 3        0     3 high       2.55  11973.          0.3   10619.      10129.
 4        0     4 medium     4.87  22820.          0.5   22596.      22820.
 5        0     5 high       1.45   6809.          1      5853.       5745.
 6        0     6 high       4.86  22797.          1     19879.      22155.
 7        0     7 medium     5.11  23949.          0.3   22176.      23949.
 8        0     8 high      12.4   58253.          0.8   53418.      57097.
 9        0     9 high       9.35  43827.          0.8   39909.      36935.
10        0    10 medium     5.06  23711.          0.5   21617.      23711.
# … with 1,122 more rows, and 5 more variables: perc.High <dbl>,
#   disease.presence <dbl>, diseased.trees <dbl>, healthy.trees <dbl>,
#   monthly.costs <dbl>
…
