…
    filter, lag

The following objects are masked from ‘package:base’:

    intersect, setdiff, setequal, union

[1] 2.0e+00 1.5e+00 1.0e+00 5.0e+00 1.5e+05 1.0e+01
[1] 2
[1] 1.5
[1] 1
[1] 5
[1] 150000
[1] 10
# A tibble: 50 x 13
   timestep  node treatment acres capital stubbornness perc.Low perc.Medium
      <dbl> <dbl> <chr>     <dbl>   <dbl>        <dbl>    <dbl>       <dbl>
 1        0     1 low        2.25  11741.          0.5   11741.      10693.
 2        0     2 low        1.15   5993.          0.5    5993.       5233.
 3        0     3 high       2.55  13340.          0.2   12543.      11689.
 4        0     4 medium     4.87  25424.          0.4   23797.      25424.
 5        0     5 high       1.45   7586.          0.1    6543.       6916.
 6        0     6 high       4.86  25399.          0.1   24552.      23725.
 7        0     7 medium     5.11  26681.          0.1   23590.      26681.
 8        0     8 high      12.4   64900.          0.2   55988.      56572.
 9        0     9 high       9.35  48827.          0.3   43600.      43310.
10        0    10 medium     5.06  26417.          0.2   22936.      26417.
# … with 40 more rows, and 5 more variables: perc.High <dbl>,
#   disease.presence <dbl>, diseased.trees <dbl>, healthy.trees <dbl>,
#   monthly.costs <dbl>
…
