…
    intersect, setdiff, setequal, union

[1] 2.0e+00 1.5e+00 5.0e+00 1.0e+01 1.5e+05 1.0e+01
[1] 2
[1] 1.5
[1] 5
[1] 10
[1] 150000
[1] 10
Warning message:
Problem with `mutate()` input `stubbornness`.
ℹ numerical expression has 5 elements: only the first used
ℹ Input `stubbornness` is `(...)`. 
# A tibble: 50 x 13
   timestep  node treatment acres capital stubbornness perc.Low perc.Medium
      <dbl> <dbl> <chr>     <dbl>   <dbl>        <dbl>    <dbl>       <dbl>
 1        0     1 low        2.25  15635.          0.5   15635.      15174.
 2        0     2 low        1.15   7980.          0.9    7980.       7442.
 3        0     3 high       2.55  17763.          0.5   16409.      17755.
 4        0     4 medium     4.87  33854.          0.6   31576.      33854.
 5        0     5 high       1.45  10101.          0.6    9540.       9933.
 6        0     6 high       4.86  33821.          1     31685.      30615.
 7        0     7 medium     5.11  35529.          0.5   31967.      35529.
 8        0     8 high      12.4   86421.          0.5   77969.      81462.
 9        0     9 high       9.35  65019.          0.7   60091.      63055.
10        0    10 medium     5.06  35177.          0.7   32647.      35177.
# … with 40 more rows, and 5 more variables: perc.High <dbl>,
#   disease.presence <dbl>, diseased.trees <dbl>, healthy.trees <dbl>,
#   monthly.costs <dbl>
…
