…
    filter, lag

The following objects are masked from ‘package:base’:

    intersect, setdiff, setequal, union

[1] 2.0e+00 1.5e+00 1.0e+00 1.0e+01 1.5e+05 0.0e+00
[1] 2
[1] 1.5
[1] 1
[1] 10
[1] 150000
[1] 0
# A tibble: 1,132 x 13
   timestep  node treatment acres capital stubbornness perc.Low perc.Medium
      <dbl> <dbl> <chr>     <dbl>   <dbl>        <dbl>    <dbl>       <dbl>
 1        0     1 low        2.25  12511.          0.3   12511.      12041.
 2        0     2 low        1.15   6386.          1      6386.       5935.
 3        0     3 high       2.55  14214.          0.9   12572.      12587.
 4        0     4 medium     4.87  27091.          0.1   24530.      27091.
 5        0     5 high       1.45   8083.          1      7591.       7454.
 6        0     6 high       4.86  27064.          0.3   23645.      26174.
 7        0     7 medium     5.11  28431.          0.7   25855.      28431.
 8        0     8 high      12.4   69155.          1     63252.      61524.
 9        0     9 high       9.35  52029.          0.5   46138.      48728.
10        0    10 medium     5.06  28149.          0.1   27405.      28149.
# … with 1,122 more rows, and 5 more variables: perc.High <dbl>,
#   disease.presence <dbl>, diseased.trees <dbl>, healthy.trees <dbl>,
#   monthly.costs <dbl>
…
