…
    filter, lag

The following objects are masked from ‘package:base’:

    intersect, setdiff, setequal, union

[1]     2.0     1.5     1.0    10.0 50000.0    10.0
[1] 2
[1] 1.5
[1] 1
[1] 10
[1] 50000
[1] 10
# A tibble: 1,132 x 13
   timestep  node treatment acres capital stubbornness perc.Low perc.Medium
      <dbl> <dbl> <chr>     <dbl>   <dbl>        <dbl>    <dbl>       <dbl>
 1        0     1 low        2.25  13438.          0.2   13438.      12986.
 2        0     2 low        1.15   6859.          0.1    6859.       6574.
 3        0     3 high       2.55  15267.          0.6   14422.      13479.
 4        0     4 medium     4.87  29098.          0.7   28757.      29098.
 5        0     5 high       1.45   8682.          0.8    7926.       7793.
 6        0     6 high       4.86  29069.          0.9   28232.      25601.
 7        0     7 medium     5.11  30537.          0.2   27798.      30537.
 8        0     8 high      12.4   74279.          0.6   68984.      71756.
 9        0     9 high       9.35  55884.          1     52237.      54275.
10        0    10 medium     5.06  30235.          0.5   29936.      30235.
# … with 1,122 more rows, and 5 more variables: perc.High <dbl>,
#   disease.presence <dbl>, diseased.trees <dbl>, healthy.trees <dbl>,
#   monthly.costs <dbl>
…
