…
    filter, lag

The following objects are masked from ‘package:base’:

    intersect, setdiff, setequal, union

[1] 2.0e+00 1.5e+00 1.0e+00 1.0e+01 1.5e+05 2.0e+01
[1] 2
[1] 1.5
[1] 1
[1] 10
[1] 150000
[1] 20
# A tibble: 1,132 x 13
   timestep  node treatment acres capital stubbornness perc.Low perc.Medium
      <dbl> <dbl> <chr>     <dbl>   <dbl>        <dbl>    <dbl>       <dbl>
 1        0     1 low        2.25  10227.          0.9   10227.       9251.
 2        0     2 low        1.15   5220.          0.9    5220.       5214.
 3        0     3 high       2.55  11619.          0.5   10043.      10881.
 4        0     4 medium     4.87  22145.          0.7   19170.      22145.
 5        0     5 high       1.45   6607.          0.5    6189.       5877.
 6        0     6 high       4.86  22123.          0.9   19662.      21894.
 7        0     7 medium     5.11  23240.          0.7   22949.      23240.
 8        0     8 high      12.4   56530.          0.3   48526.      49856.
 9        0     9 high       9.35  42530.          0.8   41081.      39080.
10        0    10 medium     5.06  23010.          0.5   22084.      23010.
# … with 1,122 more rows, and 5 more variables: perc.High <dbl>,
#   disease.presence <dbl>, diseased.trees <dbl>, healthy.trees <dbl>,
#   monthly.costs <dbl>
…
