…
    filter, lag

The following objects are masked from ‘package:base’:

    intersect, setdiff, setequal, union

[1] 2.5e+00 1.5e+00 1.0e+00 1.0e+01 1.5e+05 1.0e+01
[1] 2.5
[1] 1.5
[1] 1
[1] 10
[1] 150000
[1] 10
# A tibble: 50 x 13
   timestep  node treatment acres capital stubbornness perc.Low perc.Medium
      <dbl> <dbl> <chr>     <dbl>   <dbl>        <dbl>    <dbl>       <dbl>
 1        0     1 low        2.25  13522.          0.3   13522.      13340.
 2        0     2 low        1.15   6901.          0.4    6901.       6709.
 3        0     3 high       2.55  15363.          0.7   13804.      14514.
 4        0     4 medium     4.87  29279.          0.1   26908.      29279.
 5        0     5 high       1.45   8736.          0.8    7991.       8126.
 6        0     6 high       4.86  29250.          0.4   25617.      28593.
 7        0     7 medium     5.11  30727.          0.6   28540.      30727.
 8        0     8 high      12.4   74741.          0.2   72243.      74679.
 9        0     9 high       9.35  56232.          0.2   52519.      55166.
10        0    10 medium     5.06  30423.          0.2   29664.      30423.
# … with 40 more rows, and 5 more variables: perc.High <dbl>,
#   disease.presence <dbl>, diseased.trees <dbl>, healthy.trees <dbl>,
#   monthly.costs <dbl>
…
