…
    filter, lag

The following objects are masked from ‘package:base’:

    intersect, setdiff, setequal, union

[1] 2.5e+00 1.5e+00 1.0e+00 1.0e+01 1.5e+05 1.0e+01
[1] 2.5
[1] 1.5
[1] 1
[1] 10
[1] 150000
[1] 10
# A tibble: 1,132 x 13
   timestep  node treatment acres capital stubbornness perc.Low perc.Medium
      <dbl> <dbl> <chr>     <dbl>   <dbl>        <dbl>    <dbl>       <dbl>
 1        0     1 low        2.25   9235.          0.8    9235.       8062.
 2        0     2 low        1.15   4714.          0.7    4714.       4117.
 3        0     3 high       2.55  10493.          1     10012.      10252.
 4        0     4 medium     4.87  19997.          0.9   16842.      19997.
 5        0     5 high       1.45   5967.          0.3    5945.       5105.
 6        0     6 high       4.86  19978.          1     16874.      16928.
 7        0     7 medium     5.11  20987.          0.8   19408.      20987.
 8        0     8 high      12.4   51048.          0.8   50054.      42137.
 9        0     9 high       9.35  38406.          0.4   32384.      37480.
10        0    10 medium     5.06  20779.          0.1   18108.      20779.
# … with 1,122 more rows, and 5 more variables: perc.High <dbl>,
#   disease.presence <dbl>, diseased.trees <dbl>, healthy.trees <dbl>,
#   monthly.costs <dbl>
…
