…
    filter, lag

The following objects are masked from ‘package:base’:

    intersect, setdiff, setequal, union

[1] 1.5e+00 1.5e+00 1.0e+00 1.0e+01 1.5e+05 1.0e+01
[1] 1.5
[1] 1.5
[1] 1
[1] 10
[1] 150000
[1] 10
# A tibble: 50 x 13
   timestep  node treatment acres capital stubbornness perc.Low perc.Medium
      <dbl> <dbl> <chr>     <dbl>   <dbl>        <dbl>    <dbl>       <dbl>
 1        0     1 low        2.25   8558.          1      8558.       8219.
 2        0     2 low        1.15   4368.          0.7    4368.       3887.
 3        0     3 high       2.55   9723.          0.6    8456.       9100.
 4        0     4 medium     4.87  18531.          0.4   15172.      18531.
 5        0     5 high       1.45   5529.          0.6    5144.       5247.
 6        0     6 high       4.86  18513.          0.8   17871.      16373.
 7        0     7 medium     5.11  19448.          0.1   16208.      19448.
 8        0     8 high      12.4   47305.          0.4   44770.      45988.
 9        0     9 high       9.35  35590.          0.5   31709.      32261.
10        0    10 medium     5.06  19255.          0.3   17621.      19255.
# … with 40 more rows, and 5 more variables: perc.High <dbl>,
#   disease.presence <dbl>, diseased.trees <dbl>, healthy.trees <dbl>,
#   monthly.costs <dbl>
…
