…
    filter, lag

The following objects are masked from ‘package:base’:

    intersect, setdiff, setequal, union

[1] 2.0e+00 1.5e+00 1.0e+00 1.0e+01 1.0e+05 1.0e+01
[1] 2
[1] 1.5
[1] 1
[1] 10
[1] 1e+05
[1] 10
# A tibble: 50 x 13
   timestep  node treatment acres capital stubbornness perc.Low perc.Medium
      <dbl> <dbl> <chr>     <dbl>   <dbl>        <dbl>    <dbl>       <dbl>
 1        0     1 low        2.25  11534.          0.3   11534.      10633.
 2        0     2 low        1.15   5887.          0.5    5887.       5872.
 3        0     3 high       2.55  13105.          0.1   11753.      11707.
 4        0     4 medium     4.87  24976.          0.1   24168.      24976.
 5        0     5 high       1.45   7452.          0.3    7147.       7000.
 6        0     6 high       4.86  24951.          0.5   23098.      24090.
 7        0     7 medium     5.11  26211.          1     23718.      26211.
 8        0     8 high      12.4   63757.          1     56287.      61010.
 9        0     9 high       9.35  47967.          0.9   43021.      42273.
10        0    10 medium     5.06  25952.          1     24859.      25952.
# … with 40 more rows, and 5 more variables: perc.High <dbl>,
#   disease.presence <dbl>, diseased.trees <dbl>, healthy.trees <dbl>,
#   monthly.costs <dbl>
…
