…
    filter, lag

The following objects are masked from ‘package:base’:

    intersect, setdiff, setequal, union

[1]     2.0     1.5     1.0    10.0 50000.0    10.0
[1] 2
[1] 1.5
[1] 1
[1] 10
[1] 50000
[1] 10
# A tibble: 50 x 13
   timestep  node treatment acres capital stubbornness perc.Low perc.Medium
      <dbl> <dbl> <chr>     <dbl>   <dbl>        <dbl>    <dbl>       <dbl>
 1        0     1 low        2.25  13240.          0.9   13240.      12757.
 2        0     2 low        1.15   6758.          0.2    6758.       6436.
 3        0     3 high       2.55  15043.          0.1   14782.      14994.
 4        0     4 medium     4.87  28670.          0.8   25719.      28670.
 5        0     5 high       1.45   8554.          0.1    8144.       8101.
 6        0     6 high       4.86  28641.          0.7   27420.      26268.
 7        0     7 medium     5.11  30088.          0.6   29863.      30088.
 8        0     8 high      12.4   73186.          0.4   69967.      72863.
 9        0     9 high       9.35  55061.          0.1   52247.      51321.
10        0    10 medium     5.06  29790.          0.2   29309.      29790.
# … with 40 more rows, and 5 more variables: perc.High <dbl>,
#   disease.presence <dbl>, diseased.trees <dbl>, healthy.trees <dbl>,
#   monthly.costs <dbl>
…
