…
    intersect, setdiff, setequal, union

[1] 2.0e+00 1.5e+00 5.0e+00 1.0e+01 1.5e+05 1.0e+01
[1] 2
[1] 1.5
[1] 5
[1] 10
[1] 150000
[1] 10
Warning message:
Problem with `mutate()` input `stubbornness`.
ℹ numerical expression has 5 elements: only the first used
ℹ Input `stubbornness` is `(...)`. 
# A tibble: 50 x 13
   timestep  node treatment acres capital stubbornness perc.Low perc.Medium
      <dbl> <dbl> <chr>     <dbl>   <dbl>        <dbl>    <dbl>       <dbl>
 1        0     1 low        2.25  10243.          0.8   10243.       9481.
 2        0     2 low        1.15   5228.          1      5228.       4373.
 3        0     3 high       2.55  11638.          0.7   10828.      11423.
 4        0     4 medium     4.87  22180.          0.8   20451.      22180.
 5        0     5 high       1.45   6618.          0.8    5841.       6398.
 6        0     6 high       4.86  22158.          0.7   21020.      19716.
 7        0     7 medium     5.11  23277.          1     21540.      23277.
 8        0     8 high      12.4   56619.          0.8   53437.      49497.
 9        0     9 high       9.35  42597.          1     41410.      41672.
10        0    10 medium     5.06  23046.          1     20036.      23046.
# … with 40 more rows, and 5 more variables: perc.High <dbl>,
#   disease.presence <dbl>, diseased.trees <dbl>, healthy.trees <dbl>,
#   monthly.costs <dbl>
…
