…
    filter, lag

The following objects are masked from ‘package:base’:

    intersect, setdiff, setequal, union

[1]      2      1      1     10 150000     10
[1] 2
[1] 1
[1] 1
[1] 10
[1] 150000
[1] 10
# A tibble: 50 x 13
   timestep  node treatment acres capital stubbornness perc.Low perc.Medium
      <dbl> <dbl> <chr>     <dbl>   <dbl>        <dbl>    <dbl>       <dbl>
 1        0     1 low        2.25   8598.          1      8598.       7038.
 2        0     2 low        1.15   4388.          0.4    4388.       3622.
 3        0     3 high       2.55   9769.          0.8    9697.       8256.
 4        0     4 medium     4.87  18618.          0.5   18399.      18618.
 5        0     5 high       1.45   5555.          0.2    4598.       4662.
 6        0     6 high       4.86  18599.          0.8   15934.      15462.
 7        0     7 medium     5.11  19539.          0.9   15717.      19539.
 8        0     8 high      12.4   47526.          0.7   39273.      46408.
 9        0     9 high       9.35  35756.          0.8   33914.      34877.
10        0    10 medium     5.06  19345.          0.7   18768.      19345.
# … with 40 more rows, and 5 more variables: perc.High <dbl>,
#   disease.presence <dbl>, diseased.trees <dbl>, healthy.trees <dbl>,
#   monthly.costs <dbl>
…
