…
    filter, lag

The following objects are masked from ‘package:base’:

    intersect, setdiff, setequal, union

[1] 1.5e+00 1.5e+00 1.0e+00 1.0e+01 1.5e+05 1.0e+01
[1] 1.5
[1] 1.5
[1] 1
[1] 10
[1] 150000
[1] 10
# A tibble: 50 x 13
   timestep  node treatment acres capital stubbornness perc.Low perc.Medium
      <dbl> <dbl> <chr>     <dbl>   <dbl>        <dbl>    <dbl>       <dbl>
 1        0     1 low        2.25  12263.          0.4   12263.      10759.
 2        0     2 low        1.15   6259.          0.9    6259.       5911.
 3        0     3 high       2.55  13932.          0.5   13674.      12857.
 4        0     4 medium     4.87  26553.          0.1   25195.      26553.
 5        0     5 high       1.45   7923.          0.6    7709.       7830.
 6        0     6 high       4.86  26527.          0.8   23842.      23726.
 7        0     7 medium     5.11  27867.          1     27525.      27867.
 8        0     8 high      12.4   67784.          0.8   61097.      61644.
 9        0     9 high       9.35  50997.          0.8   44068.      48716.
10        0    10 medium     5.06  27591.          0.5   25866.      27591.
# … with 40 more rows, and 5 more variables: perc.High <dbl>,
#   disease.presence <dbl>, diseased.trees <dbl>, healthy.trees <dbl>,
#   monthly.costs <dbl>
…
