…
    filter, lag

The following objects are masked from ‘package:base’:

    intersect, setdiff, setequal, union

[1] 2.0e+00 1.5e+00 1.0e+00 5.0e+00 1.5e+05 1.0e+01
[1] 2
[1] 1.5
[1] 1
[1] 5
[1] 150000
[1] 10
# A tibble: 1,132 x 13
   timestep  node treatment acres capital stubbornness perc.Low perc.Medium
      <dbl> <dbl> <chr>     <dbl>   <dbl>        <dbl>    <dbl>       <dbl>
 1        0     1 low        2.25  13006.          0.1   13006.      12268.
 2        0     2 low        1.15   6638.          0.5    6638.       6157.
 3        0     3 high       2.55  14776.          0.1   13739.      14161.
 4        0     4 medium     4.87  28162.          0.1   24754.      28162.
 5        0     5 high       1.45   8403.          0.4    7444.       7641.
 6        0     6 high       4.86  28134.          0.3   28066.      25809.
 7        0     7 medium     5.11  29555.          0.3   29136.      29555.
 8        0     8 high      12.4   71890.          0.3   65103.      65203.
 9        0     9 high       9.35  54086.          0.3   49523.      51870.
10        0    10 medium     5.06  29262.          0.4   27264.      29262.
# … with 1,122 more rows, and 5 more variables: perc.High <dbl>,
#   disease.presence <dbl>, diseased.trees <dbl>, healthy.trees <dbl>,
#   monthly.costs <dbl>
…
