…
    filter, lag

The following objects are masked from ‘package:base’:

    intersect, setdiff, setequal, union

[1] 1.5e+00 1.5e+00 1.0e+00 1.0e+01 1.5e+05 1.0e+01
[1] 1.5
[1] 1.5
[1] 1
[1] 10
[1] 150000
[1] 10
# A tibble: 1,132 x 13
   timestep  node treatment acres capital stubbornness perc.Low perc.Medium
      <dbl> <dbl> <chr>     <dbl>   <dbl>        <dbl>    <dbl>       <dbl>
 1        0     1 low        2.25  13300.          0.6   13300.      12765.
 2        0     2 low        1.15   6788.          0.8    6788.       6406.
 3        0     3 high       2.55  15111.          0.7   14569.      13915.
 4        0     4 medium     4.87  28799.          0.1   25581.      28799.
 5        0     5 high       1.45   8593.          0.8    8112.       8410.
 6        0     6 high       4.86  28771.          0.4   26164.      28640.
 7        0     7 medium     5.11  30224.          0.6   29815.      30224.
 8        0     8 high      12.4   73517.          0.4   72958.      65737.
 9        0     9 high       9.35  55311.          0.3   48391.      52580.
10        0    10 medium     5.06  29925.          0.3   29292.      29925.
# … with 1,122 more rows, and 5 more variables: perc.High <dbl>,
#   disease.presence <dbl>, diseased.trees <dbl>, healthy.trees <dbl>,
#   monthly.costs <dbl>
…
