…
    filter, lag

The following objects are masked from ‘package:base’:

    intersect, setdiff, setequal, union

[1] 2.0e+00 1.5e+00 1.0e+00 1.0e+01 1.5e+05 2.0e+01
[1] 2
[1] 1.5
[1] 1
[1] 10
[1] 150000
[1] 20
# A tibble: 50 x 13
   timestep  node treatment acres capital stubbornness perc.Low perc.Medium
      <dbl> <dbl> <chr>     <dbl>   <dbl>        <dbl>    <dbl>       <dbl>
 1        0     1 low        2.25  13853.          0.6   13853.      13403.
 2        0     2 low        1.15   7070.          0.9    7070.       6646.
 3        0     3 high       2.55  15739.          0.7   14768.      14211.
 4        0     4 medium     4.87  29996.          0.7   26963.      29996.
 5        0     5 high       1.45   8950.          0.9    8763.       8020.
 6        0     6 high       4.86  29966.          0.5   27851.      26523.
 7        0     7 medium     5.11  31480.          1     30545.      31480.
 8        0     8 high      12.4   76572.          0.2   74049.      72769.
 9        0     9 high       9.35  57609.          0.8   55290.      55262.
10        0    10 medium     5.06  31168.          0.5   29918.      31168.
# … with 40 more rows, and 5 more variables: perc.High <dbl>,
#   disease.presence <dbl>, diseased.trees <dbl>, healthy.trees <dbl>,
#   monthly.costs <dbl>
…
