…
    filter, lag

The following objects are masked from ‘package:base’:

    intersect, setdiff, setequal, union

[1] 2.5e+00 1.5e+00 1.0e+00 1.0e+01 1.5e+05 1.0e+01
[1] 2.5
[1] 1.5
[1] 1
[1] 10
[1] 150000
[1] 10
# A tibble: 50 x 13
   timestep  node treatment acres capital stubbornness perc.Low perc.Medium
      <dbl> <dbl> <chr>     <dbl>   <dbl>        <dbl>    <dbl>       <dbl>
 1        0     1 low        2.25  10760.          0.6   10760.      10218.
 2        0     2 low        1.15   5492.          1      5492.       5262.
 3        0     3 high       2.55  12225.          1     11303.      11229.
 4        0     4 medium     4.87  23299.          0.9   22481.      23299.
 5        0     5 high       1.45   6952.          0.6    6644.       5944.
 6        0     6 high       4.86  23276.          0.4   21574.      21851.
 7        0     7 medium     5.11  24452.          0.1   22786.      24452.
 8        0     8 high      12.4   59477.          0.2   57277.      55139.
 9        0     9 high       9.35  44747.          0.1   38108.      39604.
10        0    10 medium     5.06  24209.          0.7   22596.      24209.
# … with 40 more rows, and 5 more variables: perc.High <dbl>,
#   disease.presence <dbl>, diseased.trees <dbl>, healthy.trees <dbl>,
#   monthly.costs <dbl>
…
