…
    filter, lag

The following objects are masked from ‘package:base’:

    intersect, setdiff, setequal, union

[1]     2.0     1.5     1.0    10.0 50000.0    10.0
[1] 2
[1] 1.5
[1] 1
[1] 10
[1] 50000
[1] 10
# A tibble: 50 x 13
   timestep  node treatment acres capital stubbornness perc.Low perc.Medium
      <dbl> <dbl> <chr>     <dbl>   <dbl>        <dbl>    <dbl>       <dbl>
 1        0     1 low        2.25  11606.          0.8   11606.      10117.
 2        0     2 low        1.15   5924.          0.2    5924.       5422.
 3        0     3 high       2.55  13186.          0.2   11692.      11326.
 4        0     4 medium     4.87  25131.          0.4   24235.      25131.
 5        0     5 high       1.45   7498.          0.8    6916.       6823.
 6        0     6 high       4.86  25106.          0.8   23477.      22650.
 7        0     7 medium     5.11  26374.          0.9   22720.      26374.
 8        0     8 high      12.4   64152.          0.6   57130.      59007.
 9        0     9 high       9.35  48265.          0.2   45151.      46890.
10        0    10 medium     5.06  26113.          0.8   25025.      26113.
# … with 40 more rows, and 5 more variables: perc.High <dbl>,
#   disease.presence <dbl>, diseased.trees <dbl>, healthy.trees <dbl>,
#   monthly.costs <dbl>
…
