…
    filter, lag

The following objects are masked from ‘package:base’:

    intersect, setdiff, setequal, union

[1] 2.0e+00 1.5e+00 1.0e+00 1.0e+01 1.5e+05 0.0e+00
[1] 2
[1] 1.5
[1] 1
[1] 10
[1] 150000
[1] 0
# A tibble: 50 x 13
   timestep  node treatment acres capital stubbornness perc.Low perc.Medium
      <dbl> <dbl> <chr>     <dbl>   <dbl>        <dbl>    <dbl>       <dbl>
 1        0     1 low        2.25  10663.          0.3   10663.      10008.
 2        0     2 low        1.15   5442.          0.3    5442.       5139.
 3        0     3 high       2.55  12114.          0.5   11417.      10786.
 4        0     4 medium     4.87  23088.          0.9   22202.      23088.
 5        0     5 high       1.45   6889.          0.9    6648.       6106.
 6        0     6 high       4.86  23065.          0.8   21475.      19583.
 7        0     7 medium     5.11  24230.          0.7   22161.      24230.
 8        0     8 high      12.4   58937.          0.1   56675.      50970.
 9        0     9 high       9.35  44342.          0.2   38637.      38413.
10        0    10 medium     5.06  23990.          0.5   23525.      23990.
# … with 40 more rows, and 5 more variables: perc.High <dbl>,
#   disease.presence <dbl>, diseased.trees <dbl>, healthy.trees <dbl>,
#   monthly.costs <dbl>
…
