…
    filter, lag

The following objects are masked from ‘package:base’:

    intersect, setdiff, setequal, union

[1] 3.0e+00 1.5e+00 1.0e+00 1.0e+01 1.5e+05 1.0e+01
[1] 3
[1] 1.5
[1] 1
[1] 10
[1] 150000
[1] 10
# A tibble: 1,132 x 13
   timestep  node treatment acres capital stubbornness perc.Low perc.Medium
      <dbl> <dbl> <chr>     <dbl>   <dbl>        <dbl>    <dbl>       <dbl>
 1        0     1 low        2.25  14816.          0.2   14816.      14436.
 2        0     2 low        1.15   7562.          0.1    7562.       7034.
 3        0     3 high       2.55  16833.          0.1   15390.      15428.
 4        0     4 medium     4.87  32081.          0.1   28892.      32081.
 5        0     5 high       1.45   9572.          0.6    9267.       8504.
 6        0     6 high       4.86  32050.          0.8   29428.      29710.
 7        0     7 medium     5.11  33668.          0.6   31062.      33668.
 8        0     8 high      12.4   81895.          0.1   78838.      78129.
 9        0     9 high       9.35  61614.          0.7   55049.      58837.
10        0    10 medium     5.06  33335.          0.1   32793.      33335.
# … with 1,122 more rows, and 5 more variables: perc.High <dbl>,
#   disease.presence <dbl>, diseased.trees <dbl>, healthy.trees <dbl>,
#   monthly.costs <dbl>
…
