…
    filter, lag

The following objects are masked from ‘package:base’:

    intersect, setdiff, setequal, union

[1]      2      1      1     10 150000     10
[1] 2
[1] 1
[1] 1
[1] 10
[1] 150000
[1] 10
# A tibble: 50 x 13
   timestep  node treatment acres capital stubbornness perc.Low perc.Medium
      <dbl> <dbl> <chr>     <dbl>   <dbl>        <dbl>    <dbl>       <dbl>
 1        0     1 low        2.25  13943.          0.3   13943.      12506.
 2        0     2 low        1.15   7116.          0.7    7116.       6397.
 3        0     3 high       2.55  15841.          0.1   14768.      14972.
 4        0     4 medium     4.87  30191.          0.3   26807.      30191.
 5        0     5 high       1.45   9008.          0.5    8792.       7946.
 6        0     6 high       4.86  30161.          0.5   29840.      27510.
 7        0     7 medium     5.11  31684.          1     29936.      31684.
 8        0     8 high      12.4   77069.          1     69736.      73203.
 9        0     9 high       9.35  57983.          0.6   51830.      53934.
10        0    10 medium     5.06  31370.          0.6   31365.      31370.
# … with 40 more rows, and 5 more variables: perc.High <dbl>,
#   disease.presence <dbl>, diseased.trees <dbl>, healthy.trees <dbl>,
#   monthly.costs <dbl>
…
