…
    filter, lag

The following objects are masked from ‘package:base’:

    intersect, setdiff, setequal, union

[1] 2.0e+00 1.5e+00 1.0e+00 1.0e+01 1.5e+05 1.0e+01
[1] 2
[1] 1.5
[1] 1
[1] 10
[1] 150000
[1] 10
# A tibble: 50 x 13
   timestep  node treatment acres capital stubbornness perc.Low perc.Medium
      <dbl> <dbl> <chr>     <dbl>   <dbl>        <dbl>    <dbl>       <dbl>
 1        0     1 low        2.25   8153.          0.7    8153.       7510.
 2        0     2 low        1.15   4161.          0.8    4161.       4050.
 3        0     3 high       2.55   9263.          0.2    8155.       8407.
 4        0     4 medium     4.87  17655.          0.8   17026.      17655.
 5        0     5 high       1.45   5268.          0.9    4611.       4997.
 6        0     6 high       4.86  17637.          1     14908.      14772.
 7        0     7 medium     5.11  18528.          0.5   17715.      18528.
 8        0     8 high      12.4   45067.          0.8   36864.      42072.
 9        0     9 high       9.35  33906.          0.9   29820.      33009.
10        0    10 medium     5.06  18344.          0.6   15572.      18344.
# … with 40 more rows, and 5 more variables: perc.High <dbl>,
#   disease.presence <dbl>, diseased.trees <dbl>, healthy.trees <dbl>,
#   monthly.costs <dbl>
…
