…
    filter, lag

The following objects are masked from ‘package:base’:

    intersect, setdiff, setequal, union

[1] 2.0e+00 1.5e+00 1.0e+00 5.0e+00 1.5e+05 1.0e+01
[1] 2
[1] 1.5
[1] 1
[1] 5
[1] 150000
[1] 10
# A tibble: 50 x 13
   timestep  node treatment acres capital stubbornness perc.Low perc.Medium
      <dbl> <dbl> <chr>     <dbl>   <dbl>        <dbl>    <dbl>       <dbl>
 1        0     1 low        2.25   9548.          0.2    9548.       8147.
 2        0     2 low        1.15   4873.          0.2    4873.       4809.
 3        0     3 high       2.55  10848.          0.4   10662.      10685.
 4        0     4 medium     4.87  20675.          0.1   17530.      20675.
 5        0     5 high       1.45   6169.          0.5    5585.       5793.
 6        0     6 high       4.86  20655.          0.1   19069.      19974.
 7        0     7 medium     5.11  21698.          0.5   20932.      21698.
 8        0     8 high      12.4   52779.          0.4   44377.      45085.
 9        0     9 high       9.35  39708.          0.2   33845.      33714.
10        0    10 medium     5.06  21483.          0.4   20380.      21483.
# … with 40 more rows, and 5 more variables: perc.High <dbl>,
#   disease.presence <dbl>, diseased.trees <dbl>, healthy.trees <dbl>,
#   monthly.costs <dbl>
…
