…
    filter, lag

The following objects are masked from ‘package:base’:

    intersect, setdiff, setequal, union

[1] 2.0e+00 1.5e+00 1.0e+00 1.0e+01 1.5e+05 3.0e+01
[1] 2
[1] 1.5
[1] 1
[1] 10
[1] 150000
[1] 30
# A tibble: 1,132 x 13
   timestep  node treatment acres capital stubbornness perc.Low perc.Medium
      <dbl> <dbl> <chr>     <dbl>   <dbl>        <dbl>    <dbl>       <dbl>
 1        0     1 low        2.25  12134.          0.9   12134.      11433.
 2        0     2 low        1.15   6193.          0.7    6193.       5860.
 3        0     3 high       2.55  13786.          0.9   12708.      12764.
 4        0     4 medium     4.87  26275.          0.3   24610.      26275.
 5        0     5 high       1.45   7840.          0.3    7646.       6797.
 6        0     6 high       4.86  26249.          0.4   24454.      23778.
 7        0     7 medium     5.11  27574.          0.1   24130.      27574.
 8        0     8 high      12.4   67072.          0.5   63257.      57999.
 9        0     9 high       9.35  50462.          0.9   47152.      45029.
10        0    10 medium     5.06  27301.          1     26638.      27301.
# … with 1,122 more rows, and 5 more variables: perc.High <dbl>,
#   disease.presence <dbl>, diseased.trees <dbl>, healthy.trees <dbl>,
#   monthly.costs <dbl>
…
