…
    filter, lag

The following objects are masked from ‘package:base’:

    intersect, setdiff, setequal, union

[1]  2.0  1.5  1.0 10.0  0.0 10.0
[1] 2
[1] 1.5
[1] 1
[1] 10
[1] 0
[1] 10
# A tibble: 50 x 13
   timestep  node treatment acres capital stubbornness perc.Low perc.Medium
      <dbl> <dbl> <chr>     <dbl>   <dbl>        <dbl>    <dbl>       <dbl>
 1        0     1 low        2.25  11605.          0.4   11605.      10119.
 2        0     2 low        1.15   5923.          0.4    5923.       5241.
 3        0     3 high       2.55  13185.          0.6   12268.      12482.
 4        0     4 medium     4.87  25128.          0.7   21618.      25128.
 5        0     5 high       1.45   7498.          0.6    6707.       6593.
 6        0     6 high       4.86  25104.          0.4   22166.      24408.
 7        0     7 medium     5.11  26371.          0.1   24414.      26371.
 8        0     8 high      12.4   64146.          0.1   56465.      56763.
 9        0     9 high       9.35  48260.          0.8   42696.      42360.
10        0    10 medium     5.06  26110.          0.9   22984.      26110.
# … with 40 more rows, and 5 more variables: perc.High <dbl>,
#   disease.presence <dbl>, diseased.trees <dbl>, healthy.trees <dbl>,
#   monthly.costs <dbl>
…
