…
    filter, lag

The following objects are masked from ‘package:base’:

    intersect, setdiff, setequal, union

[1] 2.0e+00 5.0e-01 1.0e+00 1.0e+01 1.5e+05 1.0e+01
[1] 2
[1] 0.5
[1] 1
[1] 10
[1] 150000
[1] 10
# A tibble: 50 x 13
   timestep  node treatment acres capital stubbornness perc.Low perc.Medium
      <dbl> <dbl> <chr>     <dbl>   <dbl>        <dbl>    <dbl>       <dbl>
 1        0     1 low        2.25  13047.          0.6   13047.      12941.
 2        0     2 low        1.15   6659.          0.7    6659.       6379.
 3        0     3 high       2.55  14823.          0.2   14549.      13992.
 4        0     4 medium     4.87  28250.          0.3   26419.      28250.
 5        0     5 high       1.45   8429.          0.1    8061.       8185.
 6        0     6 high       4.86  28222.          0.2   27006.      25362.
 7        0     7 medium     5.11  29647.          0.7   26653.      29647.
 8        0     8 high      12.4   72115.          1     63042.      65664.
 9        0     9 high       9.35  54256.          0.2   51955.      50394.
10        0    10 medium     5.06  29354.          0.8   26612.      29354.
# … with 40 more rows, and 5 more variables: perc.High <dbl>,
#   disease.presence <dbl>, diseased.trees <dbl>, healthy.trees <dbl>,
#   monthly.costs <dbl>
…
