…
    intersect, setdiff, setequal, union

[1] 2.0e+00 1.5e+00 5.0e+00 1.0e+01 1.5e+05 1.0e+01
[1] 2
[1] 1.5
[1] 5
[1] 10
[1] 150000
[1] 10
Warning message:
Problem with `mutate()` input `stubbornness`.
ℹ numerical expression has 5 elements: only the first used
ℹ Input `stubbornness` is `(...)`. 
# A tibble: 1,132 x 13
   timestep  node treatment acres capital stubbornness perc.Low perc.Medium
      <dbl> <dbl> <chr>     <dbl>   <dbl>        <dbl>    <dbl>       <dbl>
 1        0     1 low        2.25  11017.          1     11017.      10885.
 2        0     2 low        1.15   5623.          0.9    5623.       4861.
 3        0     3 high       2.55  12517.          0.5   10714.      12098.
 4        0     4 medium     4.87  23856.          0.7   22030.      23856.
 5        0     5 high       1.45   7118.          0.8    6442.       6963.
 6        0     6 high       4.86  23833.          0.9   22111.      23769.
 7        0     7 medium     5.11  25036.          0.8   22844.      25036.
 8        0     8 high      12.4   60898.          0.6   57294.      55479.
 9        0     9 high       9.35  45817.          0.8   44957.      42703.
10        0    10 medium     5.06  24788.          0.8   23164.      24788.
# … with 1,122 more rows, and 5 more variables: perc.High <dbl>,
#   disease.presence <dbl>, diseased.trees <dbl>, healthy.trees <dbl>,
#   monthly.costs <dbl>
…
