…
    filter, lag

The following objects are masked from ‘package:base’:

    intersect, setdiff, setequal, union

[1] 2.0e+00 1.5e+00 1.0e+00 1.0e+01 1.5e+05 2.0e+01
[1] 2
[1] 1.5
[1] 1
[1] 10
[1] 150000
[1] 20
# A tibble: 50 x 13
   timestep  node treatment acres capital stubbornness perc.Low perc.Medium
      <dbl> <dbl> <chr>     <dbl>   <dbl>        <dbl>    <dbl>       <dbl>
 1        0     1 low        2.25  12850.          0.2   12850.      12288.
 2        0     2 low        1.15   6559.          0.6    6559.       6314.
 3        0     3 high       2.55  14600.          0.3   14056.      14130.
 4        0     4 medium     4.87  27825.          0.6   26574.      27825.
 5        0     5 high       1.45   8302.          0.1    7338.       7596.
 6        0     6 high       4.86  27798.          0.6   27457.      26387.
 7        0     7 medium     5.11  29201.          0.1   28123.      29201.
 8        0     8 high      12.4   71030.          0.6   64045.      64368.
 9        0     9 high       9.35  53439.          0.1   48091.      53318.
10        0    10 medium     5.06  28912.          0.6   28654.      28912.
# … with 40 more rows, and 5 more variables: perc.High <dbl>,
#   disease.presence <dbl>, diseased.trees <dbl>, healthy.trees <dbl>,
#   monthly.costs <dbl>
…
