…
    filter, lag

The following objects are masked from ‘package:base’:

    intersect, setdiff, setequal, union

[1] 3.0e+00 1.5e+00 1.0e+00 1.0e+01 1.5e+05 1.0e+01
[1] 3
[1] 1.5
[1] 1
[1] 10
[1] 150000
[1] 10
# A tibble: 50 x 13
   timestep  node treatment acres capital stubbornness perc.Low perc.Medium
      <dbl> <dbl> <chr>     <dbl>   <dbl>        <dbl>    <dbl>       <dbl>
 1        0     1 low        2.25  14291.          0.6   14291.      13303.
 2        0     2 low        1.15   7294.          1      7294.       6995.
 3        0     3 high       2.55  16236.          0.9   14386.      14596.
 4        0     4 medium     4.87  30944.          1     27584.      30944.
 5        0     5 high       1.45   9233.          0.2    8909.       8840.
 6        0     6 high       4.86  30913.          0.2   28826.      27766.
 7        0     7 medium     5.11  32474.          0.8   28862.      32474.
 8        0     8 high      12.4   78991.          0.1   77848.      75337.
 9        0     9 high       9.35  59429.          0.5   52500.      55034.
10        0    10 medium     5.06  32153.          0.9   31540.      32153.
# … with 40 more rows, and 5 more variables: perc.High <dbl>,
#   disease.presence <dbl>, diseased.trees <dbl>, healthy.trees <dbl>,
#   monthly.costs <dbl>
…
