…
    filter, lag

The following objects are masked from ‘package:base’:

    intersect, setdiff, setequal, union

[1] 2.0e+00 1.5e+00 1.0e+00 1.0e+01 1.5e+05 0.0e+00
[1] 2
[1] 1.5
[1] 1
[1] 10
[1] 150000
[1] 0
# A tibble: 1,132 x 13
   timestep  node treatment acres capital stubbornness perc.Low perc.Medium
      <dbl> <dbl> <chr>     <dbl>   <dbl>        <dbl>    <dbl>       <dbl>
 1        0     1 low        2.25   9942.          0.2    9942.       9933.
 2        0     2 low        1.15   5074.          0.4    5074.       5010.
 3        0     3 high       2.55  11296.          1     10049.      11214.
 4        0     4 medium     4.87  21528.          0.2   21465.      21528.
 5        0     5 high       1.45   6423.          0.9    5922.       5964.
 6        0     6 high       4.86  21507.          1     20923.      21478.
 7        0     7 medium     5.11  22593.          0.5   19221.      22593.
 8        0     8 high      12.4   54956.          0.9   45846.      51700.
 9        0     9 high       9.35  41346.          0.8   35324.      39065.
10        0    10 medium     5.06  22369.          0.5   22197.      22369.
# … with 1,122 more rows, and 5 more variables: perc.High <dbl>,
#   disease.presence <dbl>, diseased.trees <dbl>, healthy.trees <dbl>,
#   monthly.costs <dbl>
…
