…
    filter, lag

The following objects are masked from ‘package:base’:

    intersect, setdiff, setequal, union

[1] 1.5e+00 1.5e+00 1.0e+00 1.0e+01 1.5e+05 1.0e+01
[1] 1.5
[1] 1.5
[1] 1
[1] 10
[1] 150000
[1] 10
# A tibble: 50 x 13
   timestep  node treatment acres capital stubbornness perc.Low perc.Medium
      <dbl> <dbl> <chr>     <dbl>   <dbl>        <dbl>    <dbl>       <dbl>
 1        0     1 low        2.25  16322.          0.3   16322.      15449.
 2        0     2 low        1.15   8330.          0.5    8330.       7983.
 3        0     3 high       2.55  18544.          0.5   18528.      18173.
 4        0     4 medium     4.87  35342.          0.1   31982.      35342.
 5        0     5 high       1.45  10545.          1      9993.      10310.
 6        0     6 high       4.86  35307.          0.6   32948.      33216.
 7        0     7 medium     5.11  37090.          0.3   34908.      37090.
 8        0     8 high      12.4   90219.          0.4   81059.      88081.
 9        0     9 high       9.35  67876.          1     66875.      66436.
10        0    10 medium     5.06  36723.          0.6   33404.      36723.
# … with 40 more rows, and 5 more variables: perc.High <dbl>,
#   disease.presence <dbl>, diseased.trees <dbl>, healthy.trees <dbl>,
#   monthly.costs <dbl>
…
