…
    filter, lag

The following objects are masked from ‘package:base’:

    intersect, setdiff, setequal, union

[1] 2.0e+00 5.0e-01 1.0e+00 1.0e+01 1.5e+05 1.0e+01
[1] 2
[1] 0.5
[1] 1
[1] 10
[1] 150000
[1] 10
# A tibble: 50 x 13
   timestep  node treatment acres capital stubbornness perc.Low perc.Medium
      <dbl> <dbl> <chr>     <dbl>   <dbl>        <dbl>    <dbl>       <dbl>
 1        0     1 low        2.25   8780.          0.7    8780.       8695.
 2        0     2 low        1.15   4481.          0.9    4481.       4331.
 3        0     3 high       2.55   9975.          0.5    9947.       9646.
 4        0     4 medium     4.87  19012.          1     18671.      19012.
 5        0     5 high       1.45   5673.          0.3    5501.       4635.
 6        0     6 high       4.86  18993.          0.8   15642.      18745.
 7        0     7 medium     5.11  19952.          1     19733.      19952.
 8        0     8 high      12.4   48532.          0.9   45872.      39223.
 9        0     9 high       9.35  36513.          0.2   34213.      36429.
10        0    10 medium     5.06  19755.          0.7   16289.      19755.
# … with 40 more rows, and 5 more variables: perc.High <dbl>,
#   disease.presence <dbl>, diseased.trees <dbl>, healthy.trees <dbl>,
#   monthly.costs <dbl>
…
