…
    filter, lag

The following objects are masked from ‘package:base’:

    intersect, setdiff, setequal, union

[1] 2.0e+00 5.0e-01 1.0e+00 1.0e+01 1.5e+05 1.0e+01
[1] 2
[1] 0.5
[1] 1
[1] 10
[1] 150000
[1] 10
# A tibble: 50 x 13
   timestep  node treatment acres capital stubbornness perc.Low perc.Medium
      <dbl> <dbl> <chr>     <dbl>   <dbl>        <dbl>    <dbl>       <dbl>
 1        0     1 low        2.25  10753.          0.7   10753.       9611.
 2        0     2 low        1.15   5488.          0.8    5488.       4932.
 3        0     3 high       2.55  12217.          0.9   11752.      10986.
 4        0     4 medium     4.87  23284.          0.3   20163.      23284.
 5        0     5 high       1.45   6947.          0.4    6327.       5961.
 6        0     6 high       4.86  23261.          1     20182.      21539.
 7        0     7 medium     5.11  24436.          0.4   21973.      24436.
 8        0     8 high      12.4   59439.          0.5   55523.      56095.
 9        0     9 high       9.35  44719.          0.3   41549.      44186.
10        0    10 medium     5.06  24194.          0.5   20865.      24194.
# … with 40 more rows, and 5 more variables: perc.High <dbl>,
#   disease.presence <dbl>, diseased.trees <dbl>, healthy.trees <dbl>,
#   monthly.costs <dbl>
…
