…
    filter, lag

The following objects are masked from ‘package:base’:

    intersect, setdiff, setequal, union

[1] 2.5e+00 1.5e+00 1.0e+00 1.0e+01 1.5e+05 1.0e+01
[1] 2.5
[1] 1.5
[1] 1
[1] 10
[1] 150000
[1] 10
# A tibble: 1,132 x 13
   timestep  node treatment acres capital stubbornness perc.Low perc.Medium
      <dbl> <dbl> <chr>     <dbl>   <dbl>        <dbl>    <dbl>       <dbl>
 1        0     1 low        2.25   8910.          0.1    8910.       8035.
 2        0     2 low        1.15   4547.          0.6    4547.       3801.
 3        0     3 high       2.55  10123.          1      9269.       8715.
 4        0     4 medium     4.87  19293.          0.8   17058.      19293.
 5        0     5 high       1.45   5756.          0.1    4726.       5267.
 6        0     6 high       4.86  19274.          0.7   16073.      17197.
 7        0     7 medium     5.11  20247.          0.2   17207.      20247.
 8        0     8 high      12.4   49249.          0.1   45073.      44215.
 9        0     9 high       9.35  37052.          0.7   31030.      32919.
10        0    10 medium     5.06  20046.          0.1   17021.      20046.
# … with 1,122 more rows, and 5 more variables: perc.High <dbl>,
#   disease.presence <dbl>, diseased.trees <dbl>, healthy.trees <dbl>,
#   monthly.costs <dbl>
…
