…
    filter, lag

The following objects are masked from ‘package:base’:

    intersect, setdiff, setequal, union

[1] 2.0e+00 1.5e+00 1.0e+00 1.0e+01 1.5e+05 1.0e+01
[1] 2
[1] 1.5
[1] 1
[1] 10
[1] 150000
[1] 10
# A tibble: 50 x 13
   timestep  node treatment acres capital stubbornness perc.Low perc.Medium
      <dbl> <dbl> <chr>     <dbl>   <dbl>        <dbl>    <dbl>       <dbl>
 1        0     1 low        2.25  11655.          0.5   11655.      10492.
 2        0     2 low        1.15   5948.          0.7    5948.       5703.
 3        0     3 high       2.55  13241.          0.6   12393.      12311.
 4        0     4 medium     4.87  25236.          0.9   23907.      25236.
 5        0     5 high       1.45   7530.          1      7521.       7124.
 6        0     6 high       4.86  25211.          0.3   25104.      25114.
 7        0     7 medium     5.11  26484.          0.6   26234.      26484.
 8        0     8 high      12.4   64421.          0.9   59201.      63228.
 9        0     9 high       9.35  48467.          0.6   48411.      41473.
10        0    10 medium     5.06  26222.          0.8   22883.      26222.
# … with 40 more rows, and 5 more variables: perc.High <dbl>,
#   disease.presence <dbl>, diseased.trees <dbl>, healthy.trees <dbl>,
#   monthly.costs <dbl>
…
