…
    filter, lag

The following objects are masked from ‘package:base’:

    intersect, setdiff, setequal, union

[1] 2.0e+00 1.5e+00 1.0e+00 1.0e+01 1.5e+05 2.0e+01
[1] 2
[1] 1.5
[1] 1
[1] 10
[1] 150000
[1] 20
# A tibble: 50 x 13
   timestep  node treatment acres capital stubbornness perc.Low perc.Medium
      <dbl> <dbl> <chr>     <dbl>   <dbl>        <dbl>    <dbl>       <dbl>
 1        0     1 low        2.25  11690.          0.3   11690.      10030.
 2        0     2 low        1.15   5966.          0.4    5966.       5479.
 3        0     3 high       2.55  13281.          0.7   13240.      12737.
 4        0     4 medium     4.87  25312.          1     22605.      25312.
 5        0     5 high       1.45   7552.          0.8    7359.       6726.
 6        0     6 high       4.86  25287.          0.8   24426.      23093.
 7        0     7 medium     5.11  26564.          1     23641.      26564.
 8        0     8 high      12.4   64615.          0.5   56859.      64142.
 9        0     9 high       9.35  48613.          0.6   44302.      47042.
10        0    10 medium     5.06  26301.          0.4   23483.      26301.
# … with 40 more rows, and 5 more variables: perc.High <dbl>,
#   disease.presence <dbl>, diseased.trees <dbl>, healthy.trees <dbl>,
#   monthly.costs <dbl>
…
