…
    filter, lag

The following objects are masked from ‘package:base’:

    intersect, setdiff, setequal, union

[1] 2.0e+00 1.5e+00 1.0e+00 1.0e+01 1.5e+05 3.0e+01
[1] 2
[1] 1.5
[1] 1
[1] 10
[1] 150000
[1] 30
# A tibble: 50 x 13
   timestep  node treatment acres capital stubbornness perc.Low perc.Medium
      <dbl> <dbl> <chr>     <dbl>   <dbl>        <dbl>    <dbl>       <dbl>
 1        0     1 low        2.25  12316.          0.8   12316.      10958.
 2        0     2 low        1.15   6286.          1      6286.       6021.
 3        0     3 high       2.55  13993.          1     13347.      13809.
 4        0     4 medium     4.87  26669.          0.4   23928.      26669.
 5        0     5 high       1.45   7957.          0.4    7703.       7372.
 6        0     6 high       4.86  26643.          0.7   24099.      23024.
 7        0     7 medium     5.11  27988.          0.5   25065.      27988.
 8        0     8 high      12.4   68079.          0.6   63293.      59453.
 9        0     9 high       9.35  51219.          0.2   49470.      45889.
10        0    10 medium     5.06  27711.          0.7   24306.      27711.
# … with 40 more rows, and 5 more variables: perc.High <dbl>,
#   disease.presence <dbl>, diseased.trees <dbl>, healthy.trees <dbl>,
#   monthly.costs <dbl>
…
