…
    filter, lag

The following objects are masked from ‘package:base’:

    intersect, setdiff, setequal, union

[1]      2      1      1     10 150000     10
[1] 2
[1] 1
[1] 1
[1] 10
[1] 150000
[1] 10
# A tibble: 1,132 x 13
   timestep  node treatment acres capital stubbornness perc.Low perc.Medium
      <dbl> <dbl> <chr>     <dbl>   <dbl>        <dbl>    <dbl>       <dbl>
 1        0     1 low        2.25  13492.          0.1   13492.      12660.
 2        0     2 low        1.15   6886.          0.5    6886.       6685.
 3        0     3 high       2.55  15329.          0.8   14618.      14687.
 4        0     4 medium     4.87  29214.          0.3   28562.      29214.
 5        0     5 high       1.45   8717.          0.2    8637.       8557.
 6        0     6 high       4.86  29186.          0.5   25902.      27011.
 7        0     7 medium     5.11  30659.          0.6   27680.      30659.
 8        0     8 high      12.4   74577.          1     73321.      66038.
 9        0     9 high       9.35  56108.          0.5   50001.      55706.
10        0    10 medium     5.06  30356.          0.9   29536.      30356.
# … with 1,122 more rows, and 5 more variables: perc.High <dbl>,
#   disease.presence <dbl>, diseased.trees <dbl>, healthy.trees <dbl>,
#   monthly.costs <dbl>
…
