…
    filter, lag

The following objects are masked from ‘package:base’:

    intersect, setdiff, setequal, union

[1] 2.0e+00 1.5e+00 1.0e+00 1.0e+01 1.0e+05 1.0e+01
[1] 2
[1] 1.5
[1] 1
[1] 10
[1] 1e+05
[1] 10
# A tibble: 50 x 13
   timestep  node treatment acres capital stubbornness perc.Low perc.Medium
      <dbl> <dbl> <chr>     <dbl>   <dbl>        <dbl>    <dbl>       <dbl>
 1        0     1 low        2.25  10456.          0.8   10456.      10292.
 2        0     2 low        1.15   5337.          0.2    5337.       4895.
 3        0     3 high       2.55  11879.          0.8   11874.      10142.
 4        0     4 medium     4.87  22640.          0.2   22222.      22640.
 5        0     5 high       1.45   6755.          0.6    6683.       6305.
 6        0     6 high       4.86  22618.          0.1   20969.      21125.
 7        0     7 medium     5.11  23760.          0.3   20868.      23760.
 8        0     8 high      12.4   57795.          0.7   51679.      55980.
 9        0     9 high       9.35  43482.          0.2   38226.      40284.
10        0    10 medium     5.06  23525.          0.6   22842.      23525.
# … with 40 more rows, and 5 more variables: perc.High <dbl>,
#   disease.presence <dbl>, diseased.trees <dbl>, healthy.trees <dbl>,
#   monthly.costs <dbl>
…
