…
    filter, lag

The following objects are masked from ‘package:base’:

    intersect, setdiff, setequal, union

[1] 2.0e+00 1.5e+00 1.0e+00 1.0e+01 1.5e+05 3.0e+01
[1] 2
[1] 1.5
[1] 1
[1] 10
[1] 150000
[1] 30
# A tibble: 50 x 13
   timestep  node treatment acres capital stubbornness perc.Low perc.Medium
      <dbl> <dbl> <chr>     <dbl>   <dbl>        <dbl>    <dbl>       <dbl>
 1        0     1 low        2.25  11229.          0.2   11229.      10545.
 2        0     2 low        1.15   5731.          0.3    5731.       5001.
 3        0     3 high       2.55  12757.          0.8   12200.      12231.
 4        0     4 medium     4.87  24314.          0.8   23350.      24314.
 5        0     5 high       1.45   7254.          0.5    7048.       6373.
 6        0     6 high       4.86  24290.          0.1   20642.      21089.
 7        0     7 medium     5.11  25516.          0.3   22645.      25516.
 8        0     8 high      12.4   62067.          1     53080.      54758.
 9        0     9 high       9.35  46696.          0.3   41749.      43685.
10        0    10 medium     5.06  25264.          0.7   21535.      25264.
# … with 40 more rows, and 5 more variables: perc.High <dbl>,
#   disease.presence <dbl>, diseased.trees <dbl>, healthy.trees <dbl>,
#   monthly.costs <dbl>
…
