…
    filter, lag

The following objects are masked from ‘package:base’:

    intersect, setdiff, setequal, union

[1] 2.0e+00 1.5e+00 1.0e+00 1.0e+01 1.5e+05 1.0e+01
[1] 2
[1] 1.5
[1] 1
[1] 10
[1] 150000
[1] 10
# A tibble: 50 x 13
   timestep  node treatment acres capital stubbornness perc.Low perc.Medium
      <dbl> <dbl> <chr>     <dbl>   <dbl>        <dbl>    <dbl>       <dbl>
 1        0     1 low        2.25  13235.          0.3   13235.      13096.
 2        0     2 low        1.15   6755.          0.1    6755.       5973.
 3        0     3 high       2.55  15037.          0.8   13198.      14851.
 4        0     4 medium     4.87  28659.          0.4   25095.      28659.
 5        0     5 high       1.45   8551.          0.9    7739.       7464.
 6        0     6 high       4.86  28631.          0.9   27459.      25999.
 7        0     7 medium     5.11  30077.          0.9   28615.      30077.
 8        0     8 high      12.4   73159.          0.4   72935.      72985.
 9        0     9 high       9.35  55041.          0.8   52292.      50693.
10        0    10 medium     5.06  29779.          0.8   29268.      29779.
# … with 40 more rows, and 5 more variables: perc.High <dbl>,
#   disease.presence <dbl>, diseased.trees <dbl>, healthy.trees <dbl>,
#   monthly.costs <dbl>
…
