…
    filter, lag

The following objects are masked from ‘package:base’:

    intersect, setdiff, setequal, union

[1] 3.0e+00 1.5e+00 1.0e+00 1.0e+01 1.5e+05 1.0e+01
[1] 3
[1] 1.5
[1] 1
[1] 10
[1] 150000
[1] 10
# A tibble: 50 x 13
   timestep  node treatment acres capital stubbornness perc.Low perc.Medium
      <dbl> <dbl> <chr>     <dbl>   <dbl>        <dbl>    <dbl>       <dbl>
 1        0     1 low        2.25  13639.          0.5   13639.      13259.
 2        0     2 low        1.15   6961.          0.6    6961.       6506.
 3        0     3 high       2.55  15496.          0.8   14679.      15105.
 4        0     4 medium     4.87  29534.          0.1   26797.      29534.
 5        0     5 high       1.45   8812.          0.1    8744.       8046.
 6        0     6 high       4.86  29505.          0.2   29169.      28994.
 7        0     7 medium     5.11  30995.          0.9   29278.      30995.
 8        0     8 high      12.4   75392.          0.6   66890.      72458.
 9        0     9 high       9.35  56721.          0.6   50689.      53532.
10        0    10 medium     5.06  30688.          0.1   30338.      30688.
# … with 40 more rows, and 5 more variables: perc.High <dbl>,
#   disease.presence <dbl>, diseased.trees <dbl>, healthy.trees <dbl>,
#   monthly.costs <dbl>
…
