…
    filter, lag

The following objects are masked from ‘package:base’:

    intersect, setdiff, setequal, union

[1] 2.0e+00 1.5e+00 1.0e+00 1.0e+01 1.5e+05 1.0e+01
[1] 2
[1] 1.5
[1] 1
[1] 10
[1] 150000
[1] 10
# A tibble: 50 x 13
   timestep  node treatment acres capital stubbornness perc.Low perc.Medium
      <dbl> <dbl> <chr>     <dbl>   <dbl>        <dbl>    <dbl>       <dbl>
 1        0     1 low        2.25  11742.          0.1   11742.      10339.
 2        0     2 low        1.15   5993.          0.6    5993.       5606.
 3        0     3 high       2.55  13341.          0.1   12377.      12311.
 4        0     4 medium     4.87  25425.          0.9   23575.      25425.
 5        0     5 high       1.45   7586.          0.5    6839.       6536.
 6        0     6 high       4.86  25400.          0.3   21995.      23012.
 7        0     7 medium     5.11  26683.          0.3   24711.      26683.
 8        0     8 high      12.4   64904.          0.7   64246.      58976.
 9        0     9 high       9.35  48831.          0.5   47989.      45895.
10        0    10 medium     5.06  26419.          1     26080.      26419.
# … with 40 more rows, and 5 more variables: perc.High <dbl>,
#   disease.presence <dbl>, diseased.trees <dbl>, healthy.trees <dbl>,
#   monthly.costs <dbl>
…
