…
    filter, lag

The following objects are masked from ‘package:base’:

    intersect, setdiff, setequal, union

[1] 1.5e+00 1.5e+00 1.0e+00 1.0e+01 1.5e+05 1.0e+01
[1] 1.5
[1] 1.5
[1] 1
[1] 10
[1] 150000
[1] 10
# A tibble: 50 x 13
   timestep  node treatment acres capital stubbornness perc.Low perc.Medium
      <dbl> <dbl> <chr>     <dbl>   <dbl>        <dbl>    <dbl>       <dbl>
 1        0     1 low        2.25  12379.          0.3   12379.      11648.
 2        0     2 low        1.15   6318.          0.6    6318.       6053.
 3        0     3 high       2.55  14065.          0.9   13556.      12343.
 4        0     4 medium     4.87  26805.          0.7   25271.      26805.
 5        0     5 high       1.45   7998.          0.7    7319.       7357.
 6        0     6 high       4.86  26779.          0.3   24838.      25553.
 7        0     7 medium     5.11  28131.          1     26782.      28131.
 8        0     8 high      12.4   68426.          0.6   59254.      63915.
 9        0     9 high       9.35  51480.          0.6   51359.      46122.
10        0    10 medium     5.06  27852.          0.3   26583.      27852.
# … with 40 more rows, and 5 more variables: perc.High <dbl>,
#   disease.presence <dbl>, diseased.trees <dbl>, healthy.trees <dbl>,
#   monthly.costs <dbl>
…
