…
    filter, lag

The following objects are masked from ‘package:base’:

    intersect, setdiff, setequal, union

[1] 2.0e+00 1.5e+00 1.0e+00 1.0e+01 1.5e+05 2.0e+01
[1] 2
[1] 1.5
[1] 1
[1] 10
[1] 150000
[1] 20
# A tibble: 50 x 13
   timestep  node treatment acres capital stubbornness perc.Low perc.Medium
      <dbl> <dbl> <chr>     <dbl>   <dbl>        <dbl>    <dbl>       <dbl>
 1        0     1 low        2.25  12828.          0.8   12828.      12272.
 2        0     2 low        1.15   6547.          0.8    6547.       5887.
 3        0     3 high       2.55  14574.          0.6   13069.      12903.
 4        0     4 medium     4.87  27776.          0.1   25059.      27776.
 5        0     5 high       1.45   8288.          1      8199.       7653.
 6        0     6 high       4.86  27749.          0.2   26572.      27428.
 7        0     7 medium     5.11  29150.          0.5   26268.      29150.
 8        0     8 high      12.4   70905.          0.8   64628.      66965.
 9        0     9 high       9.35  53345.          0.9   46510.      50194.
10        0    10 medium     5.06  28861.          0.4   28583.      28861.
# … with 40 more rows, and 5 more variables: perc.High <dbl>,
#   disease.presence <dbl>, diseased.trees <dbl>, healthy.trees <dbl>,
#   monthly.costs <dbl>
…
