…
    filter, lag

The following objects are masked from ‘package:base’:

    intersect, setdiff, setequal, union

[1] 2.0e+00 1.5e+00 1.0e+00 1.0e+01 1.5e+05 0.0e+00
[1] 2
[1] 1.5
[1] 1
[1] 10
[1] 150000
[1] 0
# A tibble: 50 x 13
   timestep  node treatment acres capital stubbornness perc.Low perc.Medium
      <dbl> <dbl> <chr>     <dbl>   <dbl>        <dbl>    <dbl>       <dbl>
 1        0     1 low        2.25  12886.          0.6   12886.      12465.
 2        0     2 low        1.15   6577.          0.7    6577.       6510.
 3        0     3 high       2.55  14640.          0.2   13521.      14093.
 4        0     4 medium     4.87  27902.          0.3   27697.      27902.
 5        0     5 high       1.45   8325.          0.4    7466.       7796.
 6        0     6 high       4.86  27874.          0.5   26313.      26736.
 7        0     7 medium     5.11  29282.          1     28188.      29282.
 8        0     8 high      12.4   71225.          0.8   66204.      69883.
 9        0     9 high       9.35  53586.          0.6   49275.      51062.
10        0    10 medium     5.06  28992.          1     25921.      28992.
# … with 40 more rows, and 5 more variables: perc.High <dbl>,
#   disease.presence <dbl>, diseased.trees <dbl>, healthy.trees <dbl>,
#   monthly.costs <dbl>
…
