…
    filter, lag

The following objects are masked from ‘package:base’:

    intersect, setdiff, setequal, union

[1]     2.0     1.5     1.0    10.0 50000.0    10.0
[1] 2
[1] 1.5
[1] 1
[1] 10
[1] 50000
[1] 10
# A tibble: 50 x 13
   timestep  node treatment acres capital stubbornness perc.Low perc.Medium
      <dbl> <dbl> <chr>     <dbl>   <dbl>        <dbl>    <dbl>       <dbl>
 1        0     1 low        2.25  10154.          0.5   10154.       9270.
 2        0     2 low        1.15   5182.          0.9    5182.       4534.
 3        0     3 high       2.55  11536.          1     11089.      10944.
 4        0     4 medium     4.87  21987.          0.8   19041.      21987.
 5        0     5 high       1.45   6560.          0.4    5670.       6525.
 6        0     6 high       4.86  21965.          0.5   20122.      19659.
 7        0     7 medium     5.11  23074.          0.8   21904.      23074.
 8        0     8 high      12.4   56126.          1     54423.      48992.
 9        0     9 high       9.35  42226.          0.3   36289.      37448.
10        0    10 medium     5.06  22846.          0.2   22416.      22846.
# … with 40 more rows, and 5 more variables: perc.High <dbl>,
#   disease.presence <dbl>, diseased.trees <dbl>, healthy.trees <dbl>,
#   monthly.costs <dbl>
…
