…
    filter, lag

The following objects are masked from ‘package:base’:

    intersect, setdiff, setequal, union

[1] 2.0e+00 1.5e+00 1.0e+00 1.0e+01 1.0e+05 1.0e+01
[1] 2
[1] 1.5
[1] 1
[1] 10
[1] 1e+05
[1] 10
# A tibble: 50 x 13
   timestep  node treatment acres capital stubbornness perc.Low perc.Medium
      <dbl> <dbl> <chr>     <dbl>   <dbl>        <dbl>    <dbl>       <dbl>
 1        0     1 low        2.25  11698.          0.3   11698.      11021.
 2        0     2 low        1.15   5971.          0.5    5971.       5831.
 3        0     3 high       2.55  13291.          0.4   12644.      12644.
 4        0     4 medium     4.87  25330.          1     21751.      25330.
 5        0     5 high       1.45   7558.          0.7    6827.       6901.
 6        0     6 high       4.86  25305.          0.1   21749.      22883.
 7        0     7 medium     5.11  26583.          1     26230.      26583.
 8        0     8 high      12.4   64661.          0.9   56619.      56072.
 9        0     9 high       9.35  48648.          1     42794.      47011.
10        0    10 medium     5.06  26320.          0.5   24139.      26320.
# … with 40 more rows, and 5 more variables: perc.High <dbl>,
#   disease.presence <dbl>, diseased.trees <dbl>, healthy.trees <dbl>,
#   monthly.costs <dbl>
…
