…
    filter, lag

The following objects are masked from ‘package:base’:

    intersect, setdiff, setequal, union

[1] 2.0e+00 1.5e+00 1.0e+00 1.0e+01 1.5e+05 2.0e+01
[1] 2
[1] 1.5
[1] 1
[1] 10
[1] 150000
[1] 20
# A tibble: 1,132 x 13
   timestep  node treatment acres capital stubbornness perc.Low perc.Medium
      <dbl> <dbl> <chr>     <dbl>   <dbl>        <dbl>    <dbl>       <dbl>
 1        0     1 low        2.25  12680.          0.7   12680.      12055.
 2        0     2 low        1.15   6472.          0.7    6472.       5856.
 3        0     3 high       2.55  14406.          0.8   12554.      12495.
 4        0     4 medium     4.87  27457.          0.8   26785.      27457.
 5        0     5 high       1.45   8192.          0.9    7164.       8131.
 6        0     6 high       4.86  27430.          0.3   27060.      25727.
 7        0     7 medium     5.11  28815.          1     27517.      28815.
 8        0     8 high      12.4   70090.          1     62433.      63577.
 9        0     9 high       9.35  52732.          1     47075.      52087.
10        0    10 medium     5.06  28529.          0.6   25256.      28529.
# … with 1,122 more rows, and 5 more variables: perc.High <dbl>,
#   disease.presence <dbl>, diseased.trees <dbl>, healthy.trees <dbl>,
#   monthly.costs <dbl>
…
