…
    filter, lag

The following objects are masked from ‘package:base’:

    intersect, setdiff, setequal, union

[1]  2.0  1.5  1.0 10.0  0.0 10.0
[1] 2
[1] 1.5
[1] 1
[1] 10
[1] 0
[1] 10
# A tibble: 50 x 13
   timestep  node treatment acres capital stubbornness perc.Low perc.Medium
      <dbl> <dbl> <chr>     <dbl>   <dbl>        <dbl>    <dbl>       <dbl>
 1        0     1 low        2.25   9941.          1      9941.       8969.
 2        0     2 low        1.15   5074.          0.4    5074.       4709.
 3        0     3 high       2.55  11294.          0.9   11212.      10119.
 4        0     4 medium     4.87  21525.          0.6   20946.      21525.
 5        0     5 high       1.45   6422.          0.2    5512.       6128.
 6        0     6 high       4.86  21504.          0.3   18045.      18162.
 7        0     7 medium     5.11  22590.          0.9   20270.      22590.
 8        0     8 high      12.4   54948.          0.5   47540.      52350.
 9        0     9 high       9.35  41340.          0.5   34860.      38394.
10        0    10 medium     5.06  22366.          0.5   20808.      22366.
# … with 40 more rows, and 5 more variables: perc.High <dbl>,
#   disease.presence <dbl>, diseased.trees <dbl>, healthy.trees <dbl>,
#   monthly.costs <dbl>
…
