…
    filter, lag

The following objects are masked from ‘package:base’:

    intersect, setdiff, setequal, union

[1] 2.0e+00 1.5e+00 1.0e+00 1.0e+01 1.5e+05 1.0e+01
[1] 2
[1] 1.5
[1] 1
[1] 10
[1] 150000
[1] 10
# A tibble: 1,132 x 13
   timestep  node treatment acres capital stubbornness perc.Low perc.Medium
      <dbl> <dbl> <chr>     <dbl>   <dbl>        <dbl>    <dbl>       <dbl>
 1        0     1 low        2.25  10945.          0.6   10945.      10585.
 2        0     2 low        1.15   5586.          1      5586.       4973.
 3        0     3 high       2.55  12435.          0.6   11625.      12105.
 4        0     4 medium     4.87  23699.          0.7   20188.      23699.
 5        0     5 high       1.45   7071.          0.4    7017.       6085.
 6        0     6 high       4.86  23675.          1     20134.      20149.
 7        0     7 medium     5.11  24871.          0.4   24498.      24871.
 8        0     8 high      12.4   60497.          1     53077.      55115.
 9        0     9 high       9.35  45515.          1     45328.      42859.
10        0    10 medium     5.06  24625.          0.2   24281.      24625.
# … with 1,122 more rows, and 5 more variables: perc.High <dbl>,
#   disease.presence <dbl>, diseased.trees <dbl>, healthy.trees <dbl>,
#   monthly.costs <dbl>
…
