…
    filter, lag

The following objects are masked from ‘package:base’:

    intersect, setdiff, setequal, union

[1] 2.0e+00 1.5e+00 1.0e+00 1.0e+01 1.5e+05 3.0e+01
[1] 2
[1] 1.5
[1] 1
[1] 10
[1] 150000
[1] 30
# A tibble: 50 x 13
   timestep  node treatment acres capital stubbornness perc.Low perc.Medium
      <dbl> <dbl> <chr>     <dbl>   <dbl>        <dbl>    <dbl>       <dbl>
 1        0     1 low        2.25  12771.          0.9   12771.      12569.
 2        0     2 low        1.15   6518.          0.5    6518.       6243.
 3        0     3 high       2.55  14510.          0.5   13307.      13197.
 4        0     4 medium     4.87  27655.          0.4   26101.      27655.
 5        0     5 high       1.45   8251.          0.1    8199.       7708.
 6        0     6 high       4.86  27627.          0.3   26153.      24368.
 7        0     7 medium     5.11  29022.          0.6   26912.      29022.
 8        0     8 high      12.4   70595.          0.7   65039.      62976.
 9        0     9 high       9.35  53112.          0.6   48128.      51924.
10        0    10 medium     5.06  28735.          0.6   25548.      28735.
# … with 40 more rows, and 5 more variables: perc.High <dbl>,
#   disease.presence <dbl>, diseased.trees <dbl>, healthy.trees <dbl>,
#   monthly.costs <dbl>
…
