…
    filter, lag

The following objects are masked from ‘package:base’:

    intersect, setdiff, setequal, union

[1] 2.0e+00 5.0e-01 1.0e+00 1.0e+01 1.5e+05 1.0e+01
[1] 2
[1] 0.5
[1] 1
[1] 10
[1] 150000
[1] 10
# A tibble: 1,132 x 13
   timestep  node treatment acres capital stubbornness perc.Low perc.Medium
      <dbl> <dbl> <chr>     <dbl>   <dbl>        <dbl>    <dbl>       <dbl>
 1        0     1 low        2.25   9196.          0.4    9196.       7721.
 2        0     2 low        1.15   4694.          0.4    4694.       4398.
 3        0     3 high       2.55  10448.          0.3    9539.       8962.
 4        0     4 medium     4.87  19913.          0.3   16296.      19913.
 5        0     5 high       1.45   5942.          0.7    5862.       5621.
 6        0     6 high       4.86  19894.          0.4   19232.      17374.
 7        0     7 medium     5.11  20898.          0.6   17873.      20898.
 8        0     8 high      12.4   50834.          0.3   46123.      50125.
 9        0     9 high       9.35  38245.          0.1   37646.      36515.
10        0    10 medium     5.06  20691.          0.1   20641.      20691.
# … with 1,122 more rows, and 5 more variables: perc.High <dbl>,
#   disease.presence <dbl>, diseased.trees <dbl>, healthy.trees <dbl>,
#   monthly.costs <dbl>
…
