…
    filter, lag

The following objects are masked from ‘package:base’:

    intersect, setdiff, setequal, union

[1]      2      1      1     10 150000     10
[1] 2
[1] 1
[1] 1
[1] 10
[1] 150000
[1] 10
# A tibble: 50 x 13
   timestep  node treatment acres capital stubbornness perc.Low perc.Medium
      <dbl> <dbl> <chr>     <dbl>   <dbl>        <dbl>    <dbl>       <dbl>
 1        0     1 low        2.25   9778.          0.3    9778.       8620.
 2        0     2 low        1.15   4991.          0.3    4991.       4459.
 3        0     3 high       2.55  11109.          0.6    9998.      10146.
 4        0     4 medium     4.87  21172.          0.2   20462.      21172.
 5        0     5 high       1.45   6317.          0.3    5817.       6234.
 6        0     6 high       4.86  21151.          1     19274.      19483.
 7        0     7 medium     5.11  22220.          0.8   19348.      22220.
 8        0     8 high      12.4   54047.          1     48355.      46317.
 9        0     9 high       9.35  40663.          0.9   37315.      34743.
10        0    10 medium     5.06  22000.          1     21372.      22000.
# … with 40 more rows, and 5 more variables: perc.High <dbl>,
#   disease.presence <dbl>, diseased.trees <dbl>, healthy.trees <dbl>,
#   monthly.costs <dbl>
…
