…
    filter, lag

The following objects are masked from ‘package:base’:

    intersect, setdiff, setequal, union

[1] 2.0e+00 1.5e+00 1.0e+00 1.0e+01 1.5e+05 1.0e+01
[1] 2
[1] 1.5
[1] 1
[1] 10
[1] 150000
[1] 10
# A tibble: 1,132 x 13
   timestep  node treatment acres capital stubbornness perc.Low perc.Medium
      <dbl> <dbl> <chr>     <dbl>   <dbl>        <dbl>    <dbl>       <dbl>
 1        0     1 low        2.25  11638.          0.4   11638.      10538.
 2        0     2 low        1.15   5940.          0.4    5940.       5717.
 3        0     3 high       2.55  13222.          0.7   12923.      12233.
 4        0     4 medium     4.87  25200.          0.2   22142.      25200.
 5        0     5 high       1.45   7519.          1      6747.       6775.
 6        0     6 high       4.86  25175.          0.4   23798.      24114.
 7        0     7 medium     5.11  26446.          0.8   24085.      26446.
 8        0     8 high      12.4   64328.          0.6   57418.      63210.
 9        0     9 high       9.35  48397.          1     46901.      42132.
10        0    10 medium     5.06  26184.          0.3   23978.      26184.
# … with 1,122 more rows, and 5 more variables: perc.High <dbl>,
#   disease.presence <dbl>, diseased.trees <dbl>, healthy.trees <dbl>,
#   monthly.costs <dbl>
…
