…
    filter, lag

The following objects are masked from ‘package:base’:

    intersect, setdiff, setequal, union

[1]      2      1      1     10 150000     10
[1] 2
[1] 1
[1] 1
[1] 10
[1] 150000
[1] 10
# A tibble: 1,132 x 13
   timestep  node treatment acres capital stubbornness perc.Low perc.Medium
      <dbl> <dbl> <chr>     <dbl>   <dbl>        <dbl>    <dbl>       <dbl>
 1        0     1 low        2.25  12732.          0.7   12732.      11745.
 2        0     2 low        1.15   6498.          0.8    6498.       6332.
 3        0     3 high       2.55  14465.          0.7   13985.      13119.
 4        0     4 medium     4.87  27568.          0.6   23990.      27568.
 5        0     5 high       1.45   8226.          0.9    7984.       7730.
 6        0     6 high       4.86  27541.          0.3   24589.      26315.
 7        0     7 medium     5.11  28932.          0.1   27634.      28932.
 8        0     8 high      12.4   70374.          0.6   64719.      68808.
 9        0     9 high       9.35  52946.          0.3   47850.      49598.
10        0    10 medium     5.06  28645.          0.1   24993.      28645.
# … with 1,122 more rows, and 5 more variables: perc.High <dbl>,
#   disease.presence <dbl>, diseased.trees <dbl>, healthy.trees <dbl>,
#   monthly.costs <dbl>
…
