…
    filter, lag

The following objects are masked from ‘package:base’:

    intersect, setdiff, setequal, union

[1] 2.0e+00 5.0e-01 1.0e+00 1.0e+01 1.5e+05 1.0e+01
[1] 2
[1] 0.5
[1] 1
[1] 10
[1] 150000
[1] 10
# A tibble: 50 x 13
   timestep  node treatment acres capital stubbornness perc.Low perc.Medium
      <dbl> <dbl> <chr>     <dbl>   <dbl>        <dbl>    <dbl>       <dbl>
 1        0     1 low        2.25  10584.          0.5   10584.       9266.
 2        0     2 low        1.15   5402.          0.7    5402.       5339.
 3        0     3 high       2.55  12025.          0.4   10646.      10216.
 4        0     4 medium     4.87  22918.          0.5   21662.      22918.
 5        0     5 high       1.45   6838.          0.5    6388.       5881.
 6        0     6 high       4.86  22896.          0.3   19539.      19695.
 7        0     7 medium     5.11  24052.          0.5   22979.      24052.
 8        0     8 high      12.4   58504.          0.6   57659.      51258.
 9        0     9 high       9.35  44015.          0.3   41631.      39293.
10        0    10 medium     5.06  23814.          0.2   23535.      23814.
# … with 40 more rows, and 5 more variables: perc.High <dbl>,
#   disease.presence <dbl>, diseased.trees <dbl>, healthy.trees <dbl>,
#   monthly.costs <dbl>
…
