…
    filter, lag

The following objects are masked from ‘package:base’:

    intersect, setdiff, setequal, union

[1] 2.0e+00 1.5e+00 1.0e+00 5.0e+00 1.5e+05 1.0e+01
[1] 2
[1] 1.5
[1] 1
[1] 5
[1] 150000
[1] 10
# A tibble: 50 x 13
   timestep  node treatment acres capital stubbornness perc.Low perc.Medium
      <dbl> <dbl> <chr>     <dbl>   <dbl>        <dbl>    <dbl>       <dbl>
 1        0     1 low        2.25   7778.          0.4    7778.       6186.
 2        0     2 low        1.15   3970.          0.5    3970.       3562.
 3        0     3 high       2.55   8837.          0.3    8788.       7738.
 4        0     4 medium     4.87  16841.          0.4   14665.      16841.
 5        0     5 high       1.45   5025.          0.4    4225.       4483.
 6        0     6 high       4.86  16825.          0.3   16105.      14928.
 7        0     7 medium     5.11  17674.          0.5   16274.      17674.
 8        0     8 high      12.4   42992.          0.1   35224.      39126.
 9        0     9 high       9.35  32345.          0.5   26734.      26323.
10        0    10 medium     5.06  17499.          0.4   16321.      17499.
# … with 40 more rows, and 5 more variables: perc.High <dbl>,
#   disease.presence <dbl>, diseased.trees <dbl>, healthy.trees <dbl>,
#   monthly.costs <dbl>
…
