…
    filter, lag

The following objects are masked from ‘package:base’:

    intersect, setdiff, setequal, union

[1] 2.0e+00 1.5e+00 1.0e+00 1.0e+01 1.5e+05 3.0e+01
[1] 2
[1] 1.5
[1] 1
[1] 10
[1] 150000
[1] 30
# A tibble: 50 x 13
   timestep  node treatment acres capital stubbornness perc.Low perc.Medium
      <dbl> <dbl> <chr>     <dbl>   <dbl>        <dbl>    <dbl>       <dbl>
 1        0     1 low        2.25   8845.          0.8    8845.       7837.
 2        0     2 low        1.15   4514.          0.5    4514.       4348.
 3        0     3 high       2.55  10049.          0.3    8199.       8452.
 4        0     4 medium     4.87  19152.          0.5   17633.      19152.
 5        0     5 high       1.45   5714.          0.3    5078.       5052.
 6        0     6 high       4.86  19133.          1     18432.      17056.
 7        0     7 medium     5.11  20099.          1     19787.      20099.
 8        0     8 high      12.4   48889.          0.8   43744.      46478.
 9        0     9 high       9.35  36782.          0.1   36333.      34640.
10        0    10 medium     5.06  19900.          0.6   18620.      19900.
# … with 40 more rows, and 5 more variables: perc.High <dbl>,
#   disease.presence <dbl>, diseased.trees <dbl>, healthy.trees <dbl>,
#   monthly.costs <dbl>
…
