…
    filter, lag

The following objects are masked from ‘package:base’:

    intersect, setdiff, setequal, union

[1] 2.0e+00 1.5e+00 1.0e+00 1.0e+01 1.5e+05 3.0e+01
[1] 2
[1] 1.5
[1] 1
[1] 10
[1] 150000
[1] 30
# A tibble: 1,132 x 13
   timestep  node treatment acres capital stubbornness perc.Low perc.Medium
      <dbl> <dbl> <chr>     <dbl>   <dbl>        <dbl>    <dbl>       <dbl>
 1        0     1 low        2.25  11081.          0.3   11081.       9525.
 2        0     2 low        1.15   5656.          0.5    5656.       5648.
 3        0     3 high       2.55  12590.          0.5   11379.      11530.
 4        0     4 medium     4.87  23995.          0.8   23396.      23995.
 5        0     5 high       1.45   7159.          0.2    6543.       6944.
 6        0     6 high       4.86  23971.          1     22103.      23460.
 7        0     7 medium     5.11  25182.          0.4   22269.      25182.
 8        0     8 high      12.4   61252.          1     57859.      56181.
 9        0     9 high       9.35  46083.          0.8   41922.      41473.
10        0    10 medium     5.06  24932.          0.3   23389.      24932.
# … with 1,122 more rows, and 5 more variables: perc.High <dbl>,
#   disease.presence <dbl>, diseased.trees <dbl>, healthy.trees <dbl>,
#   monthly.costs <dbl>
…
