…
    filter, lag

The following objects are masked from ‘package:base’:

    intersect, setdiff, setequal, union

[1] 2.0e+00 1.5e+00 1.0e+00 5.0e+00 1.5e+05 1.0e+01
[1] 2
[1] 1.5
[1] 1
[1] 5
[1] 150000
[1] 10
# A tibble: 1,132 x 13
   timestep  node treatment acres capital stubbornness perc.Low perc.Medium
      <dbl> <dbl> <chr>     <dbl>   <dbl>        <dbl>    <dbl>       <dbl>
 1        0     1 low        2.25  12431.          0.4   12431.      12404.
 2        0     2 low        1.15   6344.          0.2    6344.       5767.
 3        0     3 high       2.55  14123.          0.2   12429.      12398.
 4        0     4 medium     4.87  26916.          0.2   23917.      26916.
 5        0     5 high       1.45   8031.          0.1    7087.       7733.
 6        0     6 high       4.86  26890.          0.3   24759.      24355.
 7        0     7 medium     5.11  28248.          0.2   25912.      28248.
 8        0     8 high      12.4   68710.          0.2   60221.      62446.
 9        0     9 high       9.35  51694.          0.2   45148.      46588.
10        0    10 medium     5.06  27968.          0.3   27553.      27968.
# … with 1,122 more rows, and 5 more variables: perc.High <dbl>,
#   disease.presence <dbl>, diseased.trees <dbl>, healthy.trees <dbl>,
#   monthly.costs <dbl>
…
