…
    filter, lag

The following objects are masked from ‘package:base’:

    intersect, setdiff, setequal, union

[1] 3.0e+00 1.5e+00 1.0e+00 1.0e+01 1.5e+05 1.0e+01
[1] 3
[1] 1.5
[1] 1
[1] 10
[1] 150000
[1] 10
# A tibble: 1,132 x 13
   timestep  node treatment acres capital stubbornness perc.Low perc.Medium
      <dbl> <dbl> <chr>     <dbl>   <dbl>        <dbl>    <dbl>       <dbl>
 1        0     1 low        2.25  13321.          0.3   13321.      12258.
 2        0     2 low        1.15   6799.          0.9    6799.       6320.
 3        0     3 high       2.55  15135.          0.1   14910.      14979.
 4        0     4 medium     4.87  28845.          0.4   28601.      28845.
 5        0     5 high       1.45   8606.          0.4    7841.       8189.
 6        0     6 high       4.86  28816.          0.8   27620.      27931.
 7        0     7 medium     5.11  30271.          0.2   26868.      30271.
 8        0     8 high      12.4   73633.          0.3   70153.      69047.
 9        0     9 high       9.35  55398.          0.5   54163.      49890.
10        0    10 medium     5.06  29972.          1     28064.      29972.
# … with 1,122 more rows, and 5 more variables: perc.High <dbl>,
#   disease.presence <dbl>, diseased.trees <dbl>, healthy.trees <dbl>,
#   monthly.costs <dbl>
…
