…
    filter, lag

The following objects are masked from ‘package:base’:

    intersect, setdiff, setequal, union

[1]      2      1      1     10 150000     10
[1] 2
[1] 1
[1] 1
[1] 10
[1] 150000
[1] 10
# A tibble: 50 x 13
   timestep  node treatment acres capital stubbornness perc.Low perc.Medium
      <dbl> <dbl> <chr>     <dbl>   <dbl>        <dbl>    <dbl>       <dbl>
 1        0     1 low        2.25   9046.          0.4    9046.       7600.
 2        0     2 low        1.15   4617.          0.8    4617.       4406.
 3        0     3 high       2.55  10278.          0.2    9092.       9031.
 4        0     4 medium     4.87  19588.          0.9   17329.      19588.
 5        0     5 high       1.45   5844.          0.1    4764.       5131.
 6        0     6 high       4.86  19569.          0.1   19520.      16645.
 7        0     7 medium     5.11  20557.          0.1   19944.      20557.
 8        0     8 high      12.4   50003.          0.9   45317.      41961.
 9        0     9 high       9.35  37620.          0.8   31775.      36816.
10        0    10 medium     5.06  20353.          0.4   18724.      20353.
# … with 40 more rows, and 5 more variables: perc.High <dbl>,
#   disease.presence <dbl>, diseased.trees <dbl>, healthy.trees <dbl>,
#   monthly.costs <dbl>
…
