…
    filter, lag

The following objects are masked from ‘package:base’:

    intersect, setdiff, setequal, union

[1] 2.0e+00 1.5e+00 1.0e+00 1.0e+01 1.0e+05 1.0e+01
[1] 2
[1] 1.5
[1] 1
[1] 10
[1] 1e+05
[1] 10
# A tibble: 50 x 13
   timestep  node treatment acres capital stubbornness perc.Low perc.Medium
      <dbl> <dbl> <chr>     <dbl>   <dbl>        <dbl>    <dbl>       <dbl>
 1        0     1 low        2.25  11913.          0.1   11913.      11888.
 2        0     2 low        1.15   6080.          1      6080.       5651.
 3        0     3 high       2.55  13535.          0.2   11767.      11647.
 4        0     4 medium     4.87  25795.          0.5   25050.      25795.
 5        0     5 high       1.45   7696.          0.7    7110.       7033.
 6        0     6 high       4.86  25770.          0.8   23522.      23999.
 7        0     7 medium     5.11  27071.          0.2   23591.      27071.
 8        0     8 high      12.4   65848.          0.2   61324.      65811.
 9        0     9 high       9.35  49541.          0.9   44435.      46202.
10        0    10 medium     5.06  26803.          0.8   25366.      26803.
# … with 40 more rows, and 5 more variables: perc.High <dbl>,
#   disease.presence <dbl>, diseased.trees <dbl>, healthy.trees <dbl>,
#   monthly.costs <dbl>
…
