…
    filter, lag

The following objects are masked from ‘package:base’:

    intersect, setdiff, setequal, union

[1] 1.5e+00 1.5e+00 1.0e+00 1.0e+01 1.5e+05 1.0e+01
[1] 1.5
[1] 1.5
[1] 1
[1] 10
[1] 150000
[1] 10
# A tibble: 50 x 13
   timestep  node treatment acres capital stubbornness perc.Low perc.Medium
      <dbl> <dbl> <chr>     <dbl>   <dbl>        <dbl>    <dbl>       <dbl>
 1        0     1 low        2.25  10143.          0.5   10143.       9923.
 2        0     2 low        1.15   5177.          0.6    5177.       4900.
 3        0     3 high       2.55  11524.          0.9   10160.      10599.
 4        0     4 medium     4.87  21963.          0.8   21540.      21963.
 5        0     5 high       1.45   6553.          0.1    6318.       6479.
 6        0     6 high       4.86  21942.          0.4   21494.      18970.
 7        0     7 medium     5.11  23050.          1     20934.      23050.
 8        0     8 high      12.4   56066.          0.5   50647.      53978.
 9        0     9 high       9.35  42181.          0.2   37263.      36664.
10        0    10 medium     5.06  22821.          0.2   19685.      22821.
# … with 40 more rows, and 5 more variables: perc.High <dbl>,
#   disease.presence <dbl>, diseased.trees <dbl>, healthy.trees <dbl>,
#   monthly.costs <dbl>
…
