…
    intersect, setdiff, setequal, union

[1] 2.0e+00 1.5e+00 5.0e+00 1.0e+01 1.5e+05 1.0e+01
[1] 2
[1] 1.5
[1] 5
[1] 10
[1] 150000
[1] 10
Warning message:
Problem with `mutate()` input `stubbornness`.
ℹ numerical expression has 5 elements: only the first used
ℹ Input `stubbornness` is `(...)`. 
# A tibble: 50 x 13
   timestep  node treatment acres capital stubbornness perc.Low perc.Medium
      <dbl> <dbl> <chr>     <dbl>   <dbl>        <dbl>    <dbl>       <dbl>
 1        0     1 low        2.25  11643.          0.5   11643.      10180.
 2        0     2 low        1.15   5943.          0.6    5943.       5906.
 3        0     3 high       2.55  13228.          0.5   13090.      11698.
 4        0     4 medium     4.87  25212.          0.5   21570.      25212.
 5        0     5 high       1.45   7522.          0.5    7046.       6479.
 6        0     6 high       4.86  25187.          0.6   24793.      24662.
 7        0     7 medium     5.11  26459.          0.8   25084.      26459.
 8        0     8 high      12.4   64359.          0.9   63961.      63439.
 9        0     9 high       9.35  48420.          1     48009.      45521.
10        0    10 medium     5.06  26197.          0.5   25504.      26197.
# … with 40 more rows, and 5 more variables: perc.High <dbl>,
#   disease.presence <dbl>, diseased.trees <dbl>, healthy.trees <dbl>,
#   monthly.costs <dbl>
…
