…
    filter, lag

The following objects are masked from ‘package:base’:

    intersect, setdiff, setequal, union

[1] 2.0e+00 5.0e-01 1.0e+00 1.0e+01 1.5e+05 1.0e+01
[1] 2
[1] 0.5
[1] 1
[1] 10
[1] 150000
[1] 10
# A tibble: 50 x 13
   timestep  node treatment acres capital stubbornness perc.Low perc.Medium
      <dbl> <dbl> <chr>     <dbl>   <dbl>        <dbl>    <dbl>       <dbl>
 1        0     1 low        2.25  12633.          0.6   12633.      12619.
 2        0     2 low        1.15   6448.          0.7    6448.       6427.
 3        0     3 high       2.55  14353.          0.2   13267.      13844.
 4        0     4 medium     4.87  27355.          0.4   23820.      27355.
 5        0     5 high       1.45   8162.          0.2    7517.       7999.
 6        0     6 high       4.86  27328.          0.7   26754.      26019.
 7        0     7 medium     5.11  28708.          0.1   25984.      28708.
 8        0     8 high      12.4   69829.          0.8   61091.      61029.
 9        0     9 high       9.35  52536.          0.2   47673.      51040.
10        0    10 medium     5.06  28423.          0.6   24862.      28423.
# … with 40 more rows, and 5 more variables: perc.High <dbl>,
#   disease.presence <dbl>, diseased.trees <dbl>, healthy.trees <dbl>,
#   monthly.costs <dbl>
…
