…
    filter, lag

The following objects are masked from ‘package:base’:

    intersect, setdiff, setequal, union

[1] 2.0e+00 1.5e+00 1.0e+00 1.0e+01 1.0e+05 1.0e+01
[1] 2
[1] 1.5
[1] 1
[1] 10
[1] 1e+05
[1] 10
# A tibble: 1,132 x 13
   timestep  node treatment acres capital stubbornness perc.Low perc.Medium
      <dbl> <dbl> <chr>     <dbl>   <dbl>        <dbl>    <dbl>       <dbl>
 1        0     1 low        2.25  11023.          0.8   11023.      10560.
 2        0     2 low        1.15   5626.          0.2    5626.       5352.
 3        0     3 high       2.55  12523.          0.5   10973.      11233.
 4        0     4 medium     4.87  23868.          0.1   22656.      23868.
 5        0     5 high       1.45   7122.          0.5    7046.       6758.
 6        0     6 high       4.86  23845.          0.7   20196.      21213.
 7        0     7 medium     5.11  25049.          0.9   22223.      25049.
 8        0     8 high      12.4   60929.          0.4   52403.      54230.
 9        0     9 high       9.35  45840.          0.2   43979.      41389.
10        0    10 medium     5.06  24801.          0.3   23293.      24801.
# … with 1,122 more rows, and 5 more variables: perc.High <dbl>,
#   disease.presence <dbl>, diseased.trees <dbl>, healthy.trees <dbl>,
#   monthly.costs <dbl>
…
