…
    filter, lag

The following objects are masked from ‘package:base’:

    intersect, setdiff, setequal, union

[1] 2.0e+00 5.0e-01 1.0e+00 1.0e+01 1.5e+05 1.0e+01
[1] 2
[1] 0.5
[1] 1
[1] 10
[1] 150000
[1] 10
# A tibble: 1,132 x 13
   timestep  node treatment acres capital stubbornness perc.Low perc.Medium
      <dbl> <dbl> <chr>     <dbl>   <dbl>        <dbl>    <dbl>       <dbl>
 1        0     1 low        2.25  11771.          0.1   11771.      11142.
 2        0     2 low        1.15   6008.          1      6008.       5989.
 3        0     3 high       2.55  13374.          0.6   12063.      12304.
 4        0     4 medium     4.87  25489.          0.7   22081.      25489.
 5        0     5 high       1.45   7605.          0.4    7556.       6877.
 6        0     6 high       4.86  25464.          0.8   23275.      24564.
 7        0     7 medium     5.11  26750.          0.9   24798.      26750.
 8        0     8 high      12.4   65067.          0.6   59921.      57833.
 9        0     9 high       9.35  48953.          0.2   46494.      43118.
10        0    10 medium     5.06  26485.          0.7   24846.      26485.
# … with 1,122 more rows, and 5 more variables: perc.High <dbl>,
#   disease.presence <dbl>, diseased.trees <dbl>, healthy.trees <dbl>,
#   monthly.costs <dbl>
…
