…
    filter, lag

The following objects are masked from ‘package:base’:

    intersect, setdiff, setequal, union

[1] 3.0e+00 1.5e+00 1.0e+00 1.0e+01 1.5e+05 1.0e+01
[1] 3
[1] 1.5
[1] 1
[1] 10
[1] 150000
[1] 10
# A tibble: 50 x 13
   timestep  node treatment acres capital stubbornness perc.Low perc.Medium
      <dbl> <dbl> <chr>     <dbl>   <dbl>        <dbl>    <dbl>       <dbl>
 1        0     1 low        2.25  13716.          0.9   13716.      12356.
 2        0     2 low        1.15   7001.          0.2    7001.       6616.
 3        0     3 high       2.55  15583.          0.6   13718.      15430.
 4        0     4 medium     4.87  29700.          0.9   26111.      29700.
 5        0     5 high       1.45   8862.          1      8742.       8703.
 6        0     6 high       4.86  29670.          0.2   27997.      26577.
 7        0     7 medium     5.11  31169.          0.5   30464.      31169.
 8        0     8 high      12.4   75815.          0.3   72410.      69912.
 9        0     9 high       9.35  57040.          1     50354.      56572.
10        0    10 medium     5.06  30860.          0.8   30121.      30860.
# … with 40 more rows, and 5 more variables: perc.High <dbl>,
#   disease.presence <dbl>, diseased.trees <dbl>, healthy.trees <dbl>,
#   monthly.costs <dbl>
…
