…
    filter, lag

The following objects are masked from ‘package:base’:

    intersect, setdiff, setequal, union

[1] 2.0e+00 1.5e+00 1.0e+00 1.0e+01 1.5e+05 0.0e+00
[1] 2
[1] 1.5
[1] 1
[1] 10
[1] 150000
[1] 0
# A tibble: 50 x 13
   timestep  node treatment acres capital stubbornness perc.Low perc.Medium
      <dbl> <dbl> <chr>     <dbl>   <dbl>        <dbl>    <dbl>       <dbl>
 1        0     1 low        2.25  10539.          0.7   10539.       9033.
 2        0     2 low        1.15   5379.          0.5    5379.       4633.
 3        0     3 high       2.55  11974.          0.4   10214.      10587.
 4        0     4 medium     4.87  22821.          0.5   21676.      22821.
 5        0     5 high       1.45   6809.          0.3    6007.       5881.
 6        0     6 high       4.86  22798.          0.5   21684.      20118.
 7        0     7 medium     5.11  23949.          0.6   22493.      23949.
 8        0     8 high      12.4   58255.          0.2   49157.      53532.
 9        0     9 high       9.35  43828.          1     38554.      43753.
10        0    10 medium     5.06  23712.          0.7   20242.      23712.
# … with 40 more rows, and 5 more variables: perc.High <dbl>,
#   disease.presence <dbl>, diseased.trees <dbl>, healthy.trees <dbl>,
#   monthly.costs <dbl>
…
