…
    filter, lag

The following objects are masked from ‘package:base’:

    intersect, setdiff, setequal, union

[1] 2.0e+00 1.5e+00 1.0e+00 1.0e+01 1.5e+05 0.0e+00
[1] 2
[1] 1.5
[1] 1
[1] 10
[1] 150000
[1] 0
# A tibble: 50 x 13
   timestep  node treatment acres capital stubbornness perc.Low perc.Medium
      <dbl> <dbl> <chr>     <dbl>   <dbl>        <dbl>    <dbl>       <dbl>
 1        0     1 low        2.25  11477.          0.5   11477.      11342.
 2        0     2 low        1.15   5858.          0.6    5858.       5833.
 3        0     3 high       2.55  13040.          0.3   11484.      12235.
 4        0     4 medium     4.87  24852.          1     21818.      24852.
 5        0     5 high       1.45   7415.          0.1    7281.       7212.
 6        0     6 high       4.86  24827.          0.3   21228.      22512.
 7        0     7 medium     5.11  26081.          0.3   24262.      26081.
 8        0     8 high      12.4   63440.          0.3   54789.      58319.
 9        0     9 high       9.35  47729.          0.1   42894.      46962.
10        0    10 medium     5.06  25823.          0.5   23192.      25823.
# … with 40 more rows, and 5 more variables: perc.High <dbl>,
#   disease.presence <dbl>, diseased.trees <dbl>, healthy.trees <dbl>,
#   monthly.costs <dbl>
…
