…
    filter, lag

The following objects are masked from ‘package:base’:

    intersect, setdiff, setequal, union

[1] 2.0e+00 1.5e+00 1.0e+00 5.0e+00 1.5e+05 1.0e+01
[1] 2
[1] 1.5
[1] 1
[1] 5
[1] 150000
[1] 10
# A tibble: 50 x 13
   timestep  node treatment acres capital stubbornness perc.Low perc.Medium
      <dbl> <dbl> <chr>     <dbl>   <dbl>        <dbl>    <dbl>       <dbl>
 1        0     1 low        2.25  11426.          0.1   11426.      10769.
 2        0     2 low        1.15   5832.          0.2    5832.       5082.
 3        0     3 high       2.55  12981.          0.2   11919.      12961.
 4        0     4 medium     4.87  24741.          0.4   22657.      24741.
 5        0     5 high       1.45   7382.          0.1    7253.       6974.
 6        0     6 high       4.86  24717.          0.1   22776.      23943.
 7        0     7 medium     5.11  25965.          0.1   22735.      25965.
 8        0     8 high      12.4   63157.          0.1   62809.      57626.
 9        0     9 high       9.35  47516.          0.2   44440.      47432.
10        0    10 medium     5.06  25708.          0.1   22768.      25708.
# … with 40 more rows, and 5 more variables: perc.High <dbl>,
#   disease.presence <dbl>, diseased.trees <dbl>, healthy.trees <dbl>,
#   monthly.costs <dbl>
…
