…
    filter, lag

The following objects are masked from ‘package:base’:

    intersect, setdiff, setequal, union

[1] 2.0e+00 1.5e+00 1.0e+00 1.0e+01 1.5e+05 1.0e+01
[1] 2
[1] 1.5
[1] 1
[1] 10
[1] 150000
[1] 10
# A tibble: 50 x 13
   timestep  node treatment acres capital stubbornness perc.Low perc.Medium
      <dbl> <dbl> <chr>     <dbl>   <dbl>        <dbl>    <dbl>       <dbl>
 1        0     1 low        2.25  11298.          0.8   11298.      10978.
 2        0     2 low        1.15   5766.          0.8    5766.       4911.
 3        0     3 high       2.55  12836.          0.2   12174.      12371.
 4        0     4 medium     4.87  24463.          0.7   23543.      24463.
 5        0     5 high       1.45   7299.          0.1    6709.       7110.
 6        0     6 high       4.86  24439.          0.7   21029.      21044.
 7        0     7 medium     5.11  25673.          0.4   23445.      25673.
 8        0     8 high      12.4   62448.          0.8   55015.      59738.
 9        0     9 high       9.35  46983.          0.3   40381.      43654.
10        0    10 medium     5.06  25419.          0.1   25196.      25419.
# … with 40 more rows, and 5 more variables: perc.High <dbl>,
#   disease.presence <dbl>, diseased.trees <dbl>, healthy.trees <dbl>,
#   monthly.costs <dbl>
…
