…
    filter, lag

The following objects are masked from ‘package:base’:

    intersect, setdiff, setequal, union

[1] 2.0e+00 5.0e-01 1.0e+00 1.0e+01 1.5e+05 1.0e+01
[1] 2
[1] 0.5
[1] 1
[1] 10
[1] 150000
[1] 10
# A tibble: 50 x 13
   timestep  node treatment acres capital stubbornness perc.Low perc.Medium
      <dbl> <dbl> <chr>     <dbl>   <dbl>        <dbl>    <dbl>       <dbl>
 1        0     1 low        2.25  12292.          0.3   12292.      11777.
 2        0     2 low        1.15   6274.          1      6274.       6010.
 3        0     3 high       2.55  13965.          0.6   12700.      12233.
 4        0     4 medium     4.87  26615.          0.2   23475.      26615.
 5        0     5 high       1.45   7941.          0.4    7934.       7508.
 6        0     6 high       4.86  26589.          0.2   25485.      25276.
 7        0     7 medium     5.11  27932.          0.9   24391.      27932.
 8        0     8 high      12.4   67942.          0.2   61119.      60572.
 9        0     9 high       9.35  51116.          0.2   49807.      49340.
10        0    10 medium     5.06  27655.          0.8   25713.      27655.
# … with 40 more rows, and 5 more variables: perc.High <dbl>,
#   disease.presence <dbl>, diseased.trees <dbl>, healthy.trees <dbl>,
#   monthly.costs <dbl>
…
