…
    filter, lag

The following objects are masked from ‘package:base’:

    intersect, setdiff, setequal, union

[1]  2.0  1.5  1.0 10.0  0.0 10.0
[1] 2
[1] 1.5
[1] 1
[1] 10
[1] 0
[1] 10
# A tibble: 50 x 13
   timestep  node treatment acres capital stubbornness perc.Low perc.Medium
      <dbl> <dbl> <chr>     <dbl>   <dbl>        <dbl>    <dbl>       <dbl>
 1        0     1 low        2.25  11470.          0.5   11470.      10141.
 2        0     2 low        1.15   5854.          0.4    5854.       5021.
 3        0     3 high       2.55  13031.          0.1   12761.      12758.
 4        0     4 medium     4.87  24836.          0.6   24115.      24836.
 5        0     5 high       1.45   7410.          0.3    6720.       6372.
 6        0     6 high       4.86  24812.          0.9   24408.      21840.
 7        0     7 medium     5.11  26065.          0.7   24808.      26065.
 8        0     8 high      12.4   63400.          0.3   60790.      60467.
 9        0     9 high       9.35  47699.          0.8   45857.      44903.
10        0    10 medium     5.06  25806.          0.7   22609.      25806.
# … with 40 more rows, and 5 more variables: perc.High <dbl>,
#   disease.presence <dbl>, diseased.trees <dbl>, healthy.trees <dbl>,
#   monthly.costs <dbl>
…
