…
    filter, lag

The following objects are masked from ‘package:base’:

    intersect, setdiff, setequal, union

[1] 2.0e+00 1.5e+00 1.0e+00 1.0e+01 1.5e+05 1.0e+01
[1] 2
[1] 1.5
[1] 1
[1] 10
[1] 150000
[1] 10
# A tibble: 50 x 13
   timestep  node treatment acres capital stubbornness perc.Low perc.Medium
      <dbl> <dbl> <chr>     <dbl>   <dbl>        <dbl>    <dbl>       <dbl>
 1        0     1 low        2.25  14107.          0.7   14107.      13583.
 2        0     2 low        1.15   7200.          0.2    7200.       6767.
 3        0     3 high       2.55  16028.          0.1   14326.      14344.
 4        0     4 medium     4.87  30547.          0.6   29953.      30547.
 5        0     5 high       1.45   9114.          0.4    9098.       8745.
 6        0     6 high       4.86  30517.          0.9   30327.      29986.
 7        0     7 medium     5.11  32058.          0.2   28987.      32058.
 8        0     8 high      12.4   77977.          0.3   73776.      68668.
 9        0     9 high       9.35  58666.          0.9   57479.      54150.
10        0    10 medium     5.06  31740.          0.9   28361.      31740.
# … with 40 more rows, and 5 more variables: perc.High <dbl>,
#   disease.presence <dbl>, diseased.trees <dbl>, healthy.trees <dbl>,
#   monthly.costs <dbl>
…
