…
    filter, lag

The following objects are masked from ‘package:base’:

    intersect, setdiff, setequal, union

[1] 2.0e+00 1.5e+00 1.0e+00 1.0e+01 1.5e+05 3.0e+01
[1] 2
[1] 1.5
[1] 1
[1] 10
[1] 150000
[1] 30
# A tibble: 50 x 13
   timestep  node treatment acres capital stubbornness perc.Low perc.Medium
      <dbl> <dbl> <chr>     <dbl>   <dbl>        <dbl>    <dbl>       <dbl>
 1        0     1 low        2.25  11621.          0.5   11621.      11106.
 2        0     2 low        1.15   5931.          0.3    5931.       5769.
 3        0     3 high       2.55  13203.          0.1   11915.      12482.
 4        0     4 medium     4.87  25163.          0.9   23108.      25163.
 5        0     5 high       1.45   7508.          0.9    7474.       6581.
 6        0     6 high       4.86  25138.          0.4   23187.      25060.
 7        0     7 medium     5.11  26407.          0.8   24966.      26407.
 8        0     8 high      12.4   64234.          0.2   61537.      62133.
 9        0     9 high       9.35  48326.          0.5   42529.      45437.
10        0    10 medium     5.06  26146.          0.9   23723.      26146.
# … with 40 more rows, and 5 more variables: perc.High <dbl>,
#   disease.presence <dbl>, diseased.trees <dbl>, healthy.trees <dbl>,
#   monthly.costs <dbl>
…
