…
    filter, lag

The following objects are masked from ‘package:base’:

    intersect, setdiff, setequal, union

[1] 2.0e+00 1.5e+00 1.0e+00 1.0e+01 1.5e+05 1.0e+01
[1] 2
[1] 1.5
[1] 1
[1] 10
[1] 150000
[1] 10
# A tibble: 50 x 13
   timestep  node treatment acres capital stubbornness perc.Low perc.Medium
      <dbl> <dbl> <chr>     <dbl>   <dbl>        <dbl>    <dbl>       <dbl>
 1        0     1 low        2.25  10779.          0.4   10779.       9873.
 2        0     2 low        1.15   5501.          1      5501.       4900.
 3        0     3 high       2.55  12246.          0.6   11281.      10519.
 4        0     4 medium     4.87  23340.          1     22220.      23340.
 5        0     5 high       1.45   6964.          1      6172.       6800.
 6        0     6 high       4.86  23317.          0.6   21488.      21002.
 7        0     7 medium     5.11  24494.          0.6   23038.      24494.
 8        0     8 high      12.4   59581.          0.6   58673.      54808.
 9        0     9 high       9.35  44825.          0.2   39103.      43460.
10        0    10 medium     5.06  24252.          0.3   21945.      24252.
# … with 40 more rows, and 5 more variables: perc.High <dbl>,
#   disease.presence <dbl>, diseased.trees <dbl>, healthy.trees <dbl>,
#   monthly.costs <dbl>
…
