…
    filter, lag

The following objects are masked from ‘package:base’:

    intersect, setdiff, setequal, union

[1] 2.5e+00 1.5e+00 1.0e+00 1.0e+01 1.5e+05 1.0e+01
[1] 2.5
[1] 1.5
[1] 1
[1] 10
[1] 150000
[1] 10
# A tibble: 50 x 13
   timestep  node treatment acres capital stubbornness perc.Low perc.Medium
      <dbl> <dbl> <chr>     <dbl>   <dbl>        <dbl>    <dbl>       <dbl>
 1        0     1 low        2.25  10354.          0.4   10354.      10019.
 2        0     2 low        1.15   5284.          0.3    5284.       5109.
 3        0     3 high       2.55  11763.          0.7   11278.      11163.
 4        0     4 medium     4.87  22419.          0.2   20506.      22419.
 5        0     5 high       1.45   6689.          0.3    5977.       6272.
 6        0     6 high       4.86  22397.          0.9   19158.      19849.
 7        0     7 medium     5.11  23528.          0.2   21944.      23528.
 8        0     8 high      12.4   57231.          0.6   50457.      53950.
 9        0     9 high       9.35  43058.          0.8   36951.      41674.
10        0    10 medium     5.06  23295.          1     21859.      23295.
# … with 40 more rows, and 5 more variables: perc.High <dbl>,
#   disease.presence <dbl>, diseased.trees <dbl>, healthy.trees <dbl>,
#   monthly.costs <dbl>
…
