…
    filter, lag

The following objects are masked from ‘package:base’:

    intersect, setdiff, setequal, union

[1]      2      1      1     10 150000     10
[1] 2
[1] 1
[1] 1
[1] 10
[1] 150000
[1] 10
# A tibble: 50 x 13
   timestep  node treatment acres capital stubbornness perc.Low perc.Medium
      <dbl> <dbl> <chr>     <dbl>   <dbl>        <dbl>    <dbl>       <dbl>
 1        0     1 low        2.25  10320.          1     10320.       9126.
 2        0     2 low        1.15   5267.          0.7    5267.       4601.
 3        0     3 high       2.55  11725.          0.7   11605.       9947.
 4        0     4 medium     4.87  22347.          0.1   20283.      22347.
 5        0     5 high       1.45   6668.          0.6    6309.       6106.
 6        0     6 high       4.86  22325.          0.2   21318.      20944.
 7        0     7 medium     5.11  23453.          0.4   22339.      23453.
 8        0     8 high      12.4   57047.          0.4   52870.      48694.
 9        0     9 high       9.35  42919.          1     36298.      37617.
10        0    10 medium     5.06  23220.          0.4   21364.      23220.
# … with 40 more rows, and 5 more variables: perc.High <dbl>,
#   disease.presence <dbl>, diseased.trees <dbl>, healthy.trees <dbl>,
#   monthly.costs <dbl>
…
