…
    filter, lag

The following objects are masked from ‘package:base’:

    intersect, setdiff, setequal, union

[1] 2.0e+00 1.5e+00 1.0e+00 1.0e+01 1.0e+05 1.0e+01
[1] 2
[1] 1.5
[1] 1
[1] 10
[1] 1e+05
[1] 10
# A tibble: 50 x 13
   timestep  node treatment acres capital stubbornness perc.Low perc.Medium
      <dbl> <dbl> <chr>     <dbl>   <dbl>        <dbl>    <dbl>       <dbl>
 1        0     1 low        2.25  11496.          0.7   11496.      10257.
 2        0     2 low        1.15   5867.          1      5867.       5507.
 3        0     3 high       2.55  13061.          1     11781.      12995.
 4        0     4 medium     4.87  24893.          0.2   21382.      24893.
 5        0     5 high       1.45   7427.          0.8    6771.       6532.
 6        0     6 high       4.86  24868.          0.4   22495.      24066.
 7        0     7 medium     5.11  26124.          0.3   25874.      26124.
 8        0     8 high      12.4   63545.          0.1   60027.      56249.
 9        0     9 high       9.35  47808.          0.7   46125.      44656.
10        0    10 medium     5.06  25865.          0.3   24606.      25865.
# … with 40 more rows, and 5 more variables: perc.High <dbl>,
#   disease.presence <dbl>, diseased.trees <dbl>, healthy.trees <dbl>,
#   monthly.costs <dbl>
…
