…
    filter, lag

The following objects are masked from ‘package:base’:

    intersect, setdiff, setequal, union

[1]      2      1      1     10 150000     10
[1] 2
[1] 1
[1] 1
[1] 10
[1] 150000
[1] 10
# A tibble: 50 x 13
   timestep  node treatment acres capital stubbornness perc.Low perc.Medium
      <dbl> <dbl> <chr>     <dbl>   <dbl>        <dbl>    <dbl>       <dbl>
 1        0     1 low        2.25   7913.          0.4    7913.       7286.
 2        0     2 low        1.15   4039.          0.4    4039.       3677.
 3        0     3 high       2.55   8991.          0.5    7162.       7353.
 4        0     4 medium     4.87  17135.          0.7   16736.      17135.
 5        0     5 high       1.45   5113.          0.4    4495.       4151.
 6        0     6 high       4.86  17118.          1     15907.      14020.
 7        0     7 medium     5.11  17983.          0.5   16015.      17983.
 8        0     8 high      12.4   43742.          0.3   41281.      42287.
 9        0     9 high       9.35  32909.          0.3   28505.      32133.
10        0    10 medium     5.06  17805.          0.2   16368.      17805.
# … with 40 more rows, and 5 more variables: perc.High <dbl>,
#   disease.presence <dbl>, diseased.trees <dbl>, healthy.trees <dbl>,
#   monthly.costs <dbl>
…
