…
    filter, lag

The following objects are masked from ‘package:base’:

    intersect, setdiff, setequal, union

[1] 2.0e+00 1.5e+00 1.0e+00 1.0e+01 1.5e+05 2.0e+01
[1] 2
[1] 1.5
[1] 1
[1] 10
[1] 150000
[1] 20
# A tibble: 50 x 13
   timestep  node treatment acres capital stubbornness perc.Low perc.Medium
      <dbl> <dbl> <chr>     <dbl>   <dbl>        <dbl>    <dbl>       <dbl>
 1        0     1 low        2.25  10737.          0.6   10737.       9111.
 2        0     2 low        1.15   5480.          0.8    5480.       4771.
 3        0     3 high       2.55  12199.          0.2   12043.      12166.
 4        0     4 medium     4.87  23250.          0.9   21779.      23250.
 5        0     5 high       1.45   6937.          1      5913.       6914.
 6        0     6 high       4.86  23227.          0.1   21597.      20036.
 7        0     7 medium     5.11  24400.          0.9   23112.      24400.
 8        0     8 high      12.4   59350.          0.7   58207.      59189.
 9        0     9 high       9.35  44652.          0.9   38948.      40930.
10        0    10 medium     5.06  24158.          0.6   24138.      24158.
# … with 40 more rows, and 5 more variables: perc.High <dbl>,
#   disease.presence <dbl>, diseased.trees <dbl>, healthy.trees <dbl>,
#   monthly.costs <dbl>
…
