…
    filter, lag

The following objects are masked from ‘package:base’:

    intersect, setdiff, setequal, union

[1] 1.5e+00 1.5e+00 1.0e+00 1.0e+01 1.5e+05 1.0e+01
[1] 1.5
[1] 1.5
[1] 1
[1] 10
[1] 150000
[1] 10
# A tibble: 50 x 13
   timestep  node treatment acres capital stubbornness perc.Low perc.Medium
      <dbl> <dbl> <chr>     <dbl>   <dbl>        <dbl>    <dbl>       <dbl>
 1        0     1 low        2.25  11468.          0.9   11468.      11241.
 2        0     2 low        1.15   5853.          0.1    5853.       5058.
 3        0     3 high       2.55  13029.          0.9   11581.      11565.
 4        0     4 medium     4.87  24832.          0.5   22091.      24832.
 5        0     5 high       1.45   7409.          0.7    7291.       7084.
 6        0     6 high       4.86  24807.          0.7   24545.      21475.
 7        0     7 medium     5.11  26060.          0.8   24650.      26060.
 8        0     8 high      12.4   63389.          0.4   57436.      58231.
 9        0     9 high       9.35  47691.          0.6   46139.      46148.
10        0    10 medium     5.06  25802.          0.8   22792.      25802.
# … with 40 more rows, and 5 more variables: perc.High <dbl>,
#   disease.presence <dbl>, diseased.trees <dbl>, healthy.trees <dbl>,
#   monthly.costs <dbl>
…
