…
    filter, lag

The following objects are masked from ‘package:base’:

    intersect, setdiff, setequal, union

[1]     2.0     1.5     1.0    10.0 50000.0    10.0
[1] 2
[1] 1.5
[1] 1
[1] 10
[1] 50000
[1] 10
# A tibble: 50 x 13
   timestep  node treatment acres capital stubbornness perc.Low perc.Medium
      <dbl> <dbl> <chr>     <dbl>   <dbl>        <dbl>    <dbl>       <dbl>
 1        0     1 low        2.25  12971.          1     12971.      12959.
 2        0     2 low        1.15   6620.          0.2    6620.       6192.
 3        0     3 high       2.55  14736.          0.8   13004.      13873.
 4        0     4 medium     4.87  28086.          0.6   26835.      28086.
 5        0     5 high       1.45   8380.          1      8084.       8142.
 6        0     6 high       4.86  28058.          0.1   27640.      26536.
 7        0     7 medium     5.11  29475.          0.5   26716.      29475.
 8        0     8 high      12.4   71696.          0.4   67694.      64462.
 9        0     9 high       9.35  53940.          0.9   48591.      52098.
10        0    10 medium     5.06  29183.          0.8   27180.      29183.
# … with 40 more rows, and 5 more variables: perc.High <dbl>,
#   disease.presence <dbl>, diseased.trees <dbl>, healthy.trees <dbl>,
#   monthly.costs <dbl>
…
