…
    filter, lag

The following objects are masked from ‘package:base’:

    intersect, setdiff, setequal, union

[1] 2.0e+00 1.5e+00 1.0e+00 1.0e+01 1.5e+05 2.0e+01
[1] 2
[1] 1.5
[1] 1
[1] 10
[1] 150000
[1] 20
# A tibble: 50 x 13
   timestep  node treatment acres capital stubbornness perc.Low perc.Medium
      <dbl> <dbl> <chr>     <dbl>   <dbl>        <dbl>    <dbl>       <dbl>
 1        0     1 low        2.25  10411.          0.9   10411.       9269.
 2        0     2 low        1.15   5314.          0.6    5314.       4878.
 3        0     3 high       2.55  11829.          0.5   10687.      10050.
 4        0     4 medium     4.87  22544.          0.2   18931.      22544.
 5        0     5 high       1.45   6726.          1      6257.       5718.
 6        0     6 high       4.86  22521.          0.2   21986.      19457.
 7        0     7 medium     5.11  23659.          0.6   21170.      23659.
 8        0     8 high      12.4   57548.          0.2   57349.      55311.
 9        0     9 high       9.35  43296.          0.3   36348.      42165.
10        0    10 medium     5.06  23424.          0.9   20161.      23424.
# … with 40 more rows, and 5 more variables: perc.High <dbl>,
#   disease.presence <dbl>, diseased.trees <dbl>, healthy.trees <dbl>,
#   monthly.costs <dbl>
…
