…
    filter, lag

The following objects are masked from ‘package:base’:

    intersect, setdiff, setequal, union

[1] 3.0e+00 1.5e+00 1.0e+00 1.0e+01 1.5e+05 1.0e+01
[1] 3
[1] 1.5
[1] 1
[1] 10
[1] 150000
[1] 10
# A tibble: 50 x 13
   timestep  node treatment acres capital stubbornness perc.Low perc.Medium
      <dbl> <dbl> <chr>     <dbl>   <dbl>        <dbl>    <dbl>       <dbl>
 1        0     1 low        2.25  12911.          0.7   12911.      12142.
 2        0     2 low        1.15   6590.          1      6590.       6047.
 3        0     3 high       2.55  14669.          0.1   14533.      13259.
 4        0     4 medium     4.87  27957.          0.7   26326.      27957.
 5        0     5 high       1.45   8341.          1      7542.       7532.
 6        0     6 high       4.86  27929.          1     27569.      25609.
 7        0     7 medium     5.11  29340.          0.9   26284.      29340.
 8        0     8 high      12.4   71366.          1     69042.      69887.
 9        0     9 high       9.35  53692.          1     52299.      51476.
10        0    10 medium     5.06  29049.          0.2   26550.      29049.
# … with 40 more rows, and 5 more variables: perc.High <dbl>,
#   disease.presence <dbl>, diseased.trees <dbl>, healthy.trees <dbl>,
#   monthly.costs <dbl>
…
