…
    filter, lag

The following objects are masked from ‘package:base’:

    intersect, setdiff, setequal, union

[1] 2.0e+00 1.5e+00 1.0e+00 1.0e+01 1.5e+05 0.0e+00
[1] 2
[1] 1.5
[1] 1
[1] 10
[1] 150000
[1] 0
# A tibble: 50 x 13
   timestep  node treatment acres capital stubbornness perc.Low perc.Medium
      <dbl> <dbl> <chr>     <dbl>   <dbl>        <dbl>    <dbl>       <dbl>
 1        0     1 low        2.25  12481.          0.4   12481.      11975.
 2        0     2 low        1.15   6370.          0.8    6370.       5995.
 3        0     3 high       2.55  14180.          0.2   12423.      12461.
 4        0     4 medium     4.87  27026.          0.9   24353.      27026.
 5        0     5 high       1.45   8064.          0.3    7358.       7687.
 6        0     6 high       4.86  26999.          0.3   25579.      25297.
 7        0     7 medium     5.11  28363.          0.3   24832.      28363.
 8        0     8 high      12.4   68989.          0.5   62054.      67175.
 9        0     9 high       9.35  51904.          0.2   47977.      46097.
10        0    10 medium     5.06  28082.          0.5   25309.      28082.
# … with 40 more rows, and 5 more variables: perc.High <dbl>,
#   disease.presence <dbl>, diseased.trees <dbl>, healthy.trees <dbl>,
#   monthly.costs <dbl>
…
