…
    filter, lag

The following objects are masked from ‘package:base’:

    intersect, setdiff, setequal, union

[1]     2.0     1.5     1.0    10.0 50000.0    10.0
[1] 2
[1] 1.5
[1] 1
[1] 10
[1] 50000
[1] 10
# A tibble: 50 x 13
   timestep  node treatment acres capital stubbornness perc.Low perc.Medium
      <dbl> <dbl> <chr>     <dbl>   <dbl>        <dbl>    <dbl>       <dbl>
 1        0     1 low        2.25  11175.          0.2   11175.      10105.
 2        0     2 low        1.15   5704.          0.4    5704.       5202.
 3        0     3 high       2.55  12697.          0.4   11930.      11649.
 4        0     4 medium     4.87  24198.          0.9   21530.      24198.
 5        0     5 high       1.45   7220.          0.8    7038.       6688.
 6        0     6 high       4.86  24174.          0.8   21139.      21864.
 7        0     7 medium     5.11  25395.          0.3   25124.      25395.
 8        0     8 high      12.4   61771.          0.6   54711.      59509.
 9        0     9 high       9.35  46473.          0.3   46389.      42658.
10        0    10 medium     5.06  25143.          0.9   23059.      25143.
# … with 40 more rows, and 5 more variables: perc.High <dbl>,
#   disease.presence <dbl>, diseased.trees <dbl>, healthy.trees <dbl>,
#   monthly.costs <dbl>
…
