…
    filter, lag

The following objects are masked from ‘package:base’:

    intersect, setdiff, setequal, union

[1] 2.0e+00 1.5e+00 1.0e+00 1.0e+01 1.5e+05 0.0e+00
[1] 2
[1] 1.5
[1] 1
[1] 10
[1] 150000
[1] 0
# A tibble: 50 x 13
   timestep  node treatment acres capital stubbornness perc.Low perc.Medium
      <dbl> <dbl> <chr>     <dbl>   <dbl>        <dbl>    <dbl>       <dbl>
 1        0     1 low        2.25  13042.          0.2   13042.      13004.
 2        0     2 low        1.15   6657.          0.2    6657.       6003.
 3        0     3 high       2.55  14818.          0.9   14307.      13145.
 4        0     4 medium     4.87  28241.          0.4   25003.      28241.
 5        0     5 high       1.45   8426.          1      7790.       8063.
 6        0     6 high       4.86  28213.          1     26589.      24711.
 7        0     7 medium     5.11  29638.          0.8   28892.      29638.
 8        0     8 high      12.4   72092.          0.4   68289.      67928.
 9        0     9 high       9.35  54238.          0.6   52088.      52546.
10        0    10 medium     5.06  29344.          0.9   25560.      29344.
# … with 40 more rows, and 5 more variables: perc.High <dbl>,
#   disease.presence <dbl>, diseased.trees <dbl>, healthy.trees <dbl>,
#   monthly.costs <dbl>
…
