…
    filter, lag

The following objects are masked from ‘package:base’:

    intersect, setdiff, setequal, union

[1] 2.0e+00 1.5e+00 1.0e+00 5.0e+00 1.5e+05 1.0e+01
[1] 2
[1] 1.5
[1] 1
[1] 5
[1] 150000
[1] 10
# A tibble: 50 x 13
   timestep  node treatment acres capital stubbornness perc.Low perc.Medium
      <dbl> <dbl> <chr>     <dbl>   <dbl>        <dbl>    <dbl>       <dbl>
 1        0     1 low        2.25  11270.          0.4   11270.       9671.
 2        0     2 low        1.15   5752.          0.2    5752.       5012.
 3        0     3 high       2.55  12804.          0.4   11499.      11184.
 4        0     4 medium     4.87  24403.          0.4   24198.      24403.
 5        0     5 high       1.45   7281.          0.5    6880.       6244.
 6        0     6 high       4.86  24379.          0.1   20964.      20935.
 7        0     7 medium     5.11  25610.          0.3   24721.      25610.
 8        0     8 high      12.4   62294.          0.2   54489.      56216.
 9        0     9 high       9.35  46867.          0.5   43136.      41069.
10        0    10 medium     5.06  25356.          0.3   24704.      25356.
# … with 40 more rows, and 5 more variables: perc.High <dbl>,
#   disease.presence <dbl>, diseased.trees <dbl>, healthy.trees <dbl>,
#   monthly.costs <dbl>
…
