…
    filter, lag

The following objects are masked from ‘package:base’:

    intersect, setdiff, setequal, union

[1]     2.0     1.5     1.0    10.0 50000.0    10.0
[1] 2
[1] 1.5
[1] 1
[1] 10
[1] 50000
[1] 10
# A tibble: 50 x 13
   timestep  node treatment acres capital stubbornness perc.Low perc.Medium
      <dbl> <dbl> <chr>     <dbl>   <dbl>        <dbl>    <dbl>       <dbl>
 1        0     1 low        2.25  10483.          0.5   10483.       9539.
 2        0     2 low        1.15   5350.          0.1    5350.       4559.
 3        0     3 high       2.55  11910.          0.9   11205.      10612.
 4        0     4 medium     4.87  22699.          0.2   22680.      22699.
 5        0     5 high       1.45   6773.          0.2    5737.       6521.
 6        0     6 high       4.86  22677.          0.5   20401.      21587.
 7        0     7 medium     5.11  23822.          0.5   23521.      23822.
 8        0     8 high      12.4   57945.          0.9   53757.      52676.
 9        0     9 high       9.35  43595.          0.2   42754.      42866.
10        0    10 medium     5.06  23586.          0.6   20748.      23586.
# … with 40 more rows, and 5 more variables: perc.High <dbl>,
#   disease.presence <dbl>, diseased.trees <dbl>, healthy.trees <dbl>,
#   monthly.costs <dbl>
…
