…
    filter, lag

The following objects are masked from ‘package:base’:

    intersect, setdiff, setequal, union

[1] 2.5e+00 1.5e+00 1.0e+00 1.0e+01 1.5e+05 1.0e+01
[1] 2.5
[1] 1.5
[1] 1
[1] 10
[1] 150000
[1] 10
# A tibble: 50 x 13
   timestep  node treatment acres capital stubbornness perc.Low perc.Medium
      <dbl> <dbl> <chr>     <dbl>   <dbl>        <dbl>    <dbl>       <dbl>
 1        0     1 low        2.25   9855.          0.1    9855.       9113.
 2        0     2 low        1.15   5030.          0.8    5030.       4204.
 3        0     3 high       2.55  11197.          0.8   11184.       9620.
 4        0     4 medium     4.87  21339.          0.6   20925.      21339.
 5        0     5 high       1.45   6367.          0.6    5513.       6052.
 6        0     6 high       4.86  21318.          0.3   20603.      18789.
 7        0     7 medium     5.11  22395.          0.3   21536.      22395.
 8        0     8 high      12.4   54473.          0.9   48010.      46966.
 9        0     9 high       9.35  40983.          0.7   35503.      40179.
10        0    10 medium     5.06  22173.          0.6   19512.      22173.
# … with 40 more rows, and 5 more variables: perc.High <dbl>,
#   disease.presence <dbl>, diseased.trees <dbl>, healthy.trees <dbl>,
#   monthly.costs <dbl>
…
