…
    filter, lag

The following objects are masked from ‘package:base’:

    intersect, setdiff, setequal, union

[1] 2.5e+00 1.5e+00 1.0e+00 1.0e+01 1.5e+05 1.0e+01
[1] 2.5
[1] 1.5
[1] 1
[1] 10
[1] 150000
[1] 10
# A tibble: 50 x 13
   timestep  node treatment acres capital stubbornness perc.Low perc.Medium
      <dbl> <dbl> <chr>     <dbl>   <dbl>        <dbl>    <dbl>       <dbl>
 1        0     1 low        2.25  12191.          1     12191.      11282.
 2        0     2 low        1.15   6222.          0.1    6222.       5886.
 3        0     3 high       2.55  13850.          1     12716.      13771.
 4        0     4 medium     4.87  26397.          0.3   25404.      26397.
 5        0     5 high       1.45   7876.          1      7517.       7851.
 6        0     6 high       4.86  26371.          0.6   23900.      25588.
 7        0     7 medium     5.11  27703.          0.7   25603.      27703.
 8        0     8 high      12.4   67385.          1     63917.      64725.
 9        0     9 high       9.35  50697.          0.8   46283.      50314.
10        0    10 medium     5.06  27428.          0.5   27105.      27428.
# … with 40 more rows, and 5 more variables: perc.High <dbl>,
#   disease.presence <dbl>, diseased.trees <dbl>, healthy.trees <dbl>,
#   monthly.costs <dbl>
…
