…
    filter, lag

The following objects are masked from ‘package:base’:

    intersect, setdiff, setequal, union

[1]  2.0  1.5  1.0 10.0  0.0 10.0
[1] 2
[1] 1.5
[1] 1
[1] 10
[1] 0
[1] 10
# A tibble: 50 x 13
   timestep  node treatment acres capital stubbornness perc.Low perc.Medium
      <dbl> <dbl> <chr>     <dbl>   <dbl>        <dbl>    <dbl>       <dbl>
 1        0     1 low        2.25  10183.          0.8   10183.       9232.
 2        0     2 low        1.15   5197.          0.1    5197.       4813.
 3        0     3 high       2.55  11570.          0.1   10762.      10729.
 4        0     4 medium     4.87  22050.          0.3   19888.      22050.
 5        0     5 high       1.45   6579.          0.8    6351.       6348.
 6        0     6 high       4.86  22028.          0.8   18468.      20992.
 7        0     7 medium     5.11  23141.          0.5   21373.      23141.
 8        0     8 high      12.4   56288.          0.1   54349.      55033.
 9        0     9 high       9.35  42348.          1     40113.      40731.
10        0    10 medium     5.06  22912.          0.9   21707.      22912.
# … with 40 more rows, and 5 more variables: perc.High <dbl>,
#   disease.presence <dbl>, diseased.trees <dbl>, healthy.trees <dbl>,
#   monthly.costs <dbl>
…
