…
    filter, lag

The following objects are masked from ‘package:base’:

    intersect, setdiff, setequal, union

[1] 2.0e+00 1.5e+00 1.0e+00 5.0e+00 1.5e+05 1.0e+01
[1] 2
[1] 1.5
[1] 1
[1] 5
[1] 150000
[1] 10
# A tibble: 50 x 13
   timestep  node treatment acres capital stubbornness perc.Low perc.Medium
      <dbl> <dbl> <chr>     <dbl>   <dbl>        <dbl>    <dbl>       <dbl>
 1        0     1 low        2.25   9770.          0.2    9770.       8938.
 2        0     2 low        1.15   4986.          0.1    4986.       4182.
 3        0     3 high       2.55  11100.          0.4    9909.      10951.
 4        0     4 medium     4.87  21154.          0.1   18374.      21154.
 5        0     5 high       1.45   6312.          0.1    5967.       5574.
 6        0     6 high       4.86  21133.          0.1   18857.      18974.
 7        0     7 medium     5.11  22201.          0.5   18997.      22201.
 8        0     8 high      12.4   54001.          0.3   53131.      49427.
 9        0     9 high       9.35  40628.          0.3   40450.      37794.
10        0    10 medium     5.06  21981.          0.5   20751.      21981.
# … with 40 more rows, and 5 more variables: perc.High <dbl>,
#   disease.presence <dbl>, diseased.trees <dbl>, healthy.trees <dbl>,
#   monthly.costs <dbl>
…
