…
    filter, lag

The following objects are masked from ‘package:base’:

    intersect, setdiff, setequal, union

[1] 3.0e+00 1.5e+00 1.0e+00 1.0e+01 1.5e+05 1.0e+01
[1] 3
[1] 1.5
[1] 1
[1] 10
[1] 150000
[1] 10
# A tibble: 50 x 13
   timestep  node treatment acres capital stubbornness perc.Low perc.Medium
      <dbl> <dbl> <chr>     <dbl>   <dbl>        <dbl>    <dbl>       <dbl>
 1        0     1 low        2.25  12045.          0.5   12045.      11449.
 2        0     2 low        1.15   6148.          0.4    6148.       5998.
 3        0     3 high       2.55  13684.          0.9   13135.      12591.
 4        0     4 medium     4.87  26081.          1     23276.      26081.
 5        0     5 high       1.45   7782.          0.1    7193.       7360.
 6        0     6 high       4.86  26055.          0.1   24752.      25812.
 7        0     7 medium     5.11  27371.          1     27335.      27371.
 8        0     8 high      12.4   66577.          0.8   60263.      62028.
 9        0     9 high       9.35  50089.          0.6   49538.      48584.
10        0    10 medium     5.06  27100.          0.9   24049.      27100.
# … with 40 more rows, and 5 more variables: perc.High <dbl>,
#   disease.presence <dbl>, diseased.trees <dbl>, healthy.trees <dbl>,
#   monthly.costs <dbl>
…
