…
    filter, lag

The following objects are masked from ‘package:base’:

    intersect, setdiff, setequal, union

[1]  2.0  1.5  1.0 10.0  0.0 10.0
[1] 2
[1] 1.5
[1] 1
[1] 10
[1] 0
[1] 10
# A tibble: 50 x 13
   timestep  node treatment acres capital stubbornness perc.Low perc.Medium
      <dbl> <dbl> <chr>     <dbl>   <dbl>        <dbl>    <dbl>       <dbl>
 1        0     1 low        2.25  13045.          0.3   13045.      12548.
 2        0     2 low        1.15   6658.          0.4    6658.       6595.
 3        0     3 high       2.55  14821.          0.6   13694.      14532.
 4        0     4 medium     4.87  28247.          0.2   26474.      28247.
 5        0     5 high       1.45   8428.          0.9    8075.       7443.
 6        0     6 high       4.86  28219.          0.9   25923.      27309.
 7        0     7 medium     5.11  29644.          0.3   26251.      29644.
 8        0     8 high      12.4   72106.          0.9   66526.      71224.
 9        0     9 high       9.35  54249.          0.1   47853.      52856.
10        0    10 medium     5.06  29350.          0.6   25657.      29350.
# … with 40 more rows, and 5 more variables: perc.High <dbl>,
#   disease.presence <dbl>, diseased.trees <dbl>, healthy.trees <dbl>,
#   monthly.costs <dbl>
…
