…
    filter, lag

The following objects are masked from ‘package:base’:

    intersect, setdiff, setequal, union

[1] 3.0e+00 1.5e+00 1.0e+00 1.0e+01 1.5e+05 1.0e+01
[1] 3
[1] 1.5
[1] 1
[1] 10
[1] 150000
[1] 10
# A tibble: 50 x 13
   timestep  node treatment acres capital stubbornness perc.Low perc.Medium
      <dbl> <dbl> <chr>     <dbl>   <dbl>        <dbl>    <dbl>       <dbl>
 1        0     1 low        2.25  10526.          0.6   10526.      10268.
 2        0     2 low        1.15   5372.          0.8    5372.       4682.
 3        0     3 high       2.55  11959.          0.3   10853.      10391.
 4        0     4 medium     4.87  22793.          0.2   20202.      22793.
 5        0     5 high       1.45   6801.          0.2    6086.       5806.
 6        0     6 high       4.86  22770.          0.2   20061.      21204.
 7        0     7 medium     5.11  23920.          0.1   22806.      23920.
 8        0     8 high      12.4   58184.          0.6   51099.      53125.
 9        0     9 high       9.35  43775.          0.1   40371.      39352.
10        0    10 medium     5.06  23683.          0.5   21310.      23683.
# … with 40 more rows, and 5 more variables: perc.High <dbl>,
#   disease.presence <dbl>, diseased.trees <dbl>, healthy.trees <dbl>,
#   monthly.costs <dbl>
…
