…
    intersect, setdiff, setequal, union

[1] 2.0e+00 1.5e+00 5.0e+00 1.0e+01 1.5e+05 1.0e+01
[1] 2
[1] 1.5
[1] 5
[1] 10
[1] 150000
[1] 10
Warning message:
Problem with `mutate()` input `stubbornness`.
ℹ numerical expression has 5 elements: only the first used
ℹ Input `stubbornness` is `(...)`. 
# A tibble: 50 x 13
   timestep  node treatment acres capital stubbornness perc.Low perc.Medium
      <dbl> <dbl> <chr>     <dbl>   <dbl>        <dbl>    <dbl>       <dbl>
 1        0     1 low        2.25  11306.          0.7   11306.       9698.
 2        0     2 low        1.15   5771.          1      5771.       5499.
 3        0     3 high       2.55  12845.          0.8   11060.      11785.
 4        0     4 medium     4.87  24482.          0.5   22159.      24482.
 5        0     5 high       1.45   7305.          0.6    7007.       6607.
 6        0     6 high       4.86  24457.          0.9   23684.      23956.
 7        0     7 medium     5.11  25693.          0.9   23797.      25693.
 8        0     8 high      12.4   62495.          0.7   61227.      57847.
 9        0     9 high       9.35  47018.          0.9   43820.      44241.
10        0    10 medium     5.06  25438.          0.8   22615.      25438.
# … with 40 more rows, and 5 more variables: perc.High <dbl>,
#   disease.presence <dbl>, diseased.trees <dbl>, healthy.trees <dbl>,
#   monthly.costs <dbl>
…
