…
    filter, lag

The following objects are masked from ‘package:base’:

    intersect, setdiff, setequal, union

[1] 2.0e+00 1.5e+00 1.0e+00 1.0e+01 1.0e+05 1.0e+01
[1] 2
[1] 1.5
[1] 1
[1] 10
[1] 1e+05
[1] 10
# A tibble: 50 x 13
   timestep  node treatment acres capital stubbornness perc.Low perc.Medium
      <dbl> <dbl> <chr>     <dbl>   <dbl>        <dbl>    <dbl>       <dbl>
 1        0     1 low        2.25  11079.          0.1   11079.      10591.
 2        0     2 low        1.15   5655.          0.2    5655.       5251.
 3        0     3 high       2.55  12588.          0.4   11400.      11816.
 4        0     4 medium     4.87  23990.          0.1   22539.      23990.
 5        0     5 high       1.45   7158.          0.6    6157.       6838.
 6        0     6 high       4.86  23967.          1     20679.      23728.
 7        0     7 medium     5.11  25177.          0.1   24901.      25177.
 8        0     8 high      12.4   61241.          0.7   54517.      58395.
 9        0     9 high       9.35  46075.          0.6   43840.      43905.
10        0    10 medium     5.06  24928.          0.4   24665.      24928.
# … with 40 more rows, and 5 more variables: perc.High <dbl>,
#   disease.presence <dbl>, diseased.trees <dbl>, healthy.trees <dbl>,
#   monthly.costs <dbl>
…
