…
    intersect, setdiff, setequal, union

[1] 2.0e+00 1.5e+00 5.0e+00 1.0e+01 1.5e+05 1.0e+01
[1] 2
[1] 1.5
[1] 5
[1] 10
[1] 150000
[1] 10
Warning message:
Problem with `mutate()` input `stubbornness`.
ℹ numerical expression has 5 elements: only the first used
ℹ Input `stubbornness` is `(...)`. 
# A tibble: 50 x 13
   timestep  node treatment acres capital stubbornness perc.Low perc.Medium
      <dbl> <dbl> <chr>     <dbl>   <dbl>        <dbl>    <dbl>       <dbl>
 1        0     1 low        2.25  14337.          0.6   14337.      14018.
 2        0     2 low        1.15   7318.          0.8    7318.       7095.
 3        0     3 high       2.55  16289.          0.7   14542.      14912.
 4        0     4 medium     4.87  31045.          0.5   30066.      31045.
 5        0     5 high       1.45   9263.          0.9    8574.       8467.
 6        0     6 high       4.86  31014.          0.5   28047.      29078.
 7        0     7 medium     5.11  32581.          0.7   30440.      32581.
 8        0     8 high      12.4   79250.          1     78168.      78889.
 9        0     9 high       9.35  59623.          0.8   54069.      53816.
10        0    10 medium     5.06  32258.          0.8   31094.      32258.
# … with 40 more rows, and 5 more variables: perc.High <dbl>,
#   disease.presence <dbl>, diseased.trees <dbl>, healthy.trees <dbl>,
#   monthly.costs <dbl>
…
